{
	"info": {
		"_postman_id": "3920e373-afc5-4085-8c04-929c34708082",
		"name": "DataHandling",
		"schema": "https://schema.getpostman.com/json/collection/v2.1.0/collection.json"
	},
	"item": [
		{
			"name": "GetPOList",
			"event": [
				{
					"listen": "test",
					"script": {
						"exec": [
							"pm.test(\"Status code is 200\", function () {\r",
							"    pm.response.to.have.status(200);\r",
							"});\r",
							"pm.test(\"Content-Type header is application/json\", function(){\r",
							"  pm.expect(pm.response.headers.get('Content-Type')).to.eq('application/json; charset=utf-8');\r",
							"});\r",
							"pm.test(\"Response time is same/less than Expected time\", function () {\r",
							"    const time = parseInt(pm.environment.get(\"Time\"))\r",
							"    pm.expect(pm.response.responseTime).to.be.below(time);\r",
							"});"
						],
						"type": "text/javascript"
					}
				}
			],
			"request": {
				"method": "POST",
				"header": [
					{
						"key": "Content-Type",
						"value": "application/json",
						"type": "text"
					},
					{
						"key": "Token",
						"value": "{{token}}",
						"type": "text"
					}
				],
				"body": {
					"mode": "raw",
					"raw": "[\r\n  \"GetPOList\",\r\n  {\r\n    \"SortField\": \"PONumber\",\r\n    \"ReceivedDateFrom\": null,\r\n    \"ReceivedDateTo\": null,\r\n    \"ClientID\": 82,\r\n    \"PONumber\": \"\"\r\n  },\r\n  0,\r\n  20\r\n]"
				},
				"url": {
					"raw": "{{url}}/api/DataHandling/GetPOList",
					"host": [
						"{{url}}"
					],
					"path": [
						"api",
						"DataHandling",
						"GetPOList"
					]
				}
			},
			"response": []
		},
		{
			"name": "GetCartonInfo",
			"event": [
				{
					"listen": "test",
					"script": {
						"exec": [
							"pm.test(\"Status code is 200\", function () {\r",
							"    pm.response.to.have.status(200);\r",
							"});\r",
							"pm.test(\"Content-Type header is application/json\", function(){\r",
							"  pm.expect(pm.response.headers.get('Content-Type')).to.eq('application/json; charset=utf-8');\r",
							"});\r",
							"pm.test(\"Response time is same/less than Expected time\", function () {\r",
							"    const time = parseInt(pm.environment.get(\"Time\"))\r",
							"    pm.expect(pm.response.responseTime).to.be.below(time);\r",
							"});\r",
							""
						],
						"type": "text/javascript"
					}
				}
			],
			"request": {
				"method": "POST",
				"header": [
					{
						"key": "Content-Type",
						"value": "application/json",
						"type": "text"
					},
					{
						"key": "Token",
						"value": "{{token}}",
						"type": "text"
					}
				],
				"body": {
					"mode": "raw",
					"raw": "[\r\n  \"GetCartonInfo\",\r\n  {\r\n    \"PONumber\": null,\r\n    \"SONumber\": null,\r\n    \"CreateDateTo\": null,\r\n    \"ClientID\": 82,\r\n    \"CartonID\": null,\r\n    \"CreateDateFrom\": null,\r\n    \"ContainerNumber\": null,\r\n    \"SortField\": \"SONumber\",\r\n    \"Status\": null\r\n  },\r\n  0,\r\n  20\r\n]"
				},
				"url": {
					"raw": "{{url}}/api/DataHandling/GetCartonInfo",
					"host": [
						"{{url}}"
					],
					"path": [
						"api",
						"DataHandling",
						"GetCartonInfo"
					]
				}
			},
			"response": []
		},
		{
			"name": "GetLPSequenceList",
			"event": [
				{
					"listen": "test",
					"script": {
						"exec": [
							"pm.test(\"Status code is 200\", function () {\r",
							"    pm.response.to.have.status(200);\r",
							"});\r",
							"pm.test(\"Content-Type header is application/json\", function(){\r",
							"  pm.expect(pm.response.headers.get('Content-Type')).to.eq('application/json; charset=utf-8');\r",
							"});\r",
							"pm.test(\"Response time is same/less than Expected time\", function () {\r",
							"    const time = parseInt(pm.environment.get(\"Time\"))\r",
							"    pm.expect(pm.response.responseTime).to.be.below(time);\r",
							"});"
						],
						"type": "text/javascript"
					}
				}
			],
			"request": {
				"method": "POST",
				"header": [
					{
						"key": "Content-Type",
						"value": "application/json",
						"type": "text"
					},
					{
						"key": "Token",
						"value": "{{token}}",
						"type": "text"
					}
				],
				"body": {
					"mode": "raw",
					"raw": "[\r\n  \"GetLPSequenceList\",\r\n  {\r\n    \"Status\": null,\r\n    \"ProductDescription\": null,\r\n    \"ContainerNumber\": null,\r\n    \"Width\": null,\r\n    \"LastUpdateFrom\": null,\r\n    \"UPC\": null,\r\n    \"ClientID\": null,\r\n    \"CartonID\": null,\r\n    \"POId\": 4,\r\n    \"SortField\": \"Status\",\r\n    \"Style\": null,\r\n    \"Size\": null,\r\n    \"Sequence\": null,\r\n    \"LastUpdateTo\": null,\r\n    \"Color\": null\r\n  },\r\n  0,\r\n  20\r\n]"
				},
				"url": {
					"raw": "{{url}}/api/DataHandling/GetLPSequenceList",
					"host": [
						"{{url}}"
					],
					"path": [
						"api",
						"DataHandling",
						"GetLPSequenceList"
					]
				}
			},
			"response": []
		},
		{
			"name": "GetPOSequenceList",
			"event": [
				{
					"listen": "test",
					"script": {
						"exec": [
							"pm.test(\"Status code is 200\", function () {\r",
							"    pm.response.to.have.status(200);\r",
							"});\r",
							"pm.test(\"Content-Type header is application/json\", function(){\r",
							"  pm.expect(pm.response.headers.get('Content-Type')).to.eq('application/json; charset=utf-8');\r",
							"});\r",
							"pm.test(\"Response time is same/less than Expected time\", function () {\r",
							"    const time = parseInt(pm.environment.get(\"Time\"))\r",
							"    pm.expect(pm.response.responseTime).to.be.below(time);\r",
							"});\r",
							""
						],
						"type": "text/javascript"
					}
				}
			],
			"request": {
				"method": "POST",
				"header": [
					{
						"key": "Content-Type",
						"value": "application/json",
						"type": "text"
					},
					{
						"key": "Token",
						"value": "{{token}}",
						"type": "text"
					}
				],
				"body": {
					"mode": "raw",
					"raw": "[\r\n  \"GetPOSequenceList\",\r\n  {\r\n    \"PONumber\": null,\r\n    \"SKU\": null,\r\n    \"Size\": null,\r\n    \"SONumber\": \"CMB0818480\",\r\n    \"ReceivedDateTo\": \"\",\r\n    \"ClientID\": 82,\r\n    \"Container\": null,\r\n    \"POSeq\": null,\r\n    \"ReceivedDateFrom\": \"\",\r\n    \"SOId\": null,\r\n    \"SortField\": \"\"\r\n  },\r\n  0,\r\n  20\r\n]"
				},
				"url": {
					"raw": "{{url}}/api/DataHandling/GetPOSequenceList",
					"host": [
						"{{url}}"
					],
					"path": [
						"api",
						"DataHandling",
						"GetPOSequenceList"
					]
				}
			},
			"response": []
		},
		{
			"name": "GetSoAssignContainerList",
			"event": [
				{
					"listen": "test",
					"script": {
						"exec": [
							"pm.test(\"Status code is 200\", function () {\r",
							"    pm.response.to.have.status(200);\r",
							"});\r",
							"pm.test(\"Content-Type header is application/json\", function(){\r",
							"  pm.expect(pm.response.headers.get('Content-Type')).to.eq('application/json; charset=utf-8');\r",
							"});\r",
							"pm.test(\"Response time is same/less than Expected time\", function () {\r",
							"    const time = parseInt(pm.environment.get(\"Time\"))\r",
							"    pm.expect(pm.response.responseTime).to.be.below(time);\r",
							"});"
						],
						"type": "text/javascript"
					}
				}
			],
			"request": {
				"method": "POST",
				"header": [
					{
						"key": "Content-Type",
						"value": "application/json",
						"type": "text"
					},
					{
						"key": "Token",
						"value": "{{token}}",
						"type": "text"
					}
				],
				"body": {
					"mode": "raw",
					"raw": "[\r\n  \"GetSoAssignContainerList\",\r\n  {\r\n    \"PONumber\": null,\r\n    \"SONumber\": \"\",\r\n    \"ClientID\": 82,\r\n    \"Container\": null,\r\n    \"DateReceivedFrom\": \"\",\r\n    \"SortField\": \"Status\",\r\n    \"DateReceivedTo\": \"\"\r\n  },\r\n  0,\r\n  20\r\n]"
				},
				"url": {
					"raw": "{{url}}/api/DataHandling/GetSoAssignContainerList",
					"host": [
						"{{url}}"
					],
					"path": [
						"api",
						"DataHandling",
						"GetSoAssignContainerList"
					]
				}
			},
			"response": []
		},
		{
			"name": "GetLPStatusListBySP",
			"event": [
				{
					"listen": "test",
					"script": {
						"exec": [
							"pm.test(\"Status code is 200\", function () {\r",
							"    pm.response.to.have.status(200);\r",
							"});\r",
							"pm.test(\"Content-Type header is application/json\", function(){\r",
							"  pm.expect(pm.response.headers.get('Content-Type')).to.eq('application/json; charset=utf-8');\r",
							"});\r",
							"pm.test(\"Response time is same/less than Expected time\", function () {\r",
							"    const time = parseInt(pm.environment.get(\"Time\"))\r",
							"    pm.expect(pm.response.responseTime).to.be.below(time);\r",
							"});"
						],
						"type": "text/javascript"
					}
				}
			],
			"request": {
				"method": "POST",
				"header": [
					{
						"key": "Content-Type",
						"value": "application/json",
						"type": "text"
					},
					{
						"key": "Token",
						"value": "{{token}}",
						"type": "text"
					}
				],
				"body": {
					"mode": "raw",
					"raw": "[\r\n  \"GetLPStatusListBySP\",\r\n  {\r\n    \"SO\": \"\",\r\n    \"ClientID\": 82,\r\n    \"CargoHandlingXML\": \"<CargoHandlingXML><CargoHandling><SO></SO><PO></PO><POSeq> </POSeq><CreatedDateFrom></CreatedDateFrom><CreatedDateTo></CreatedDateTo><ModifiedDateFrom></ModifiedDateFrom><ModifiedDateTo></ModifiedDateTo><AcceptedDateFrom></AcceptedDateFrom><AcceptedDateTo></AcceptedDateTo><StuffedDateFrom></StuffedDateFrom><StuffedDateTo></StuffedDateTo><CartonFrom></CartonFrom><CartonTo></CartonTo><StatusType></StatusType><CheckForGroupORDetail>False</CheckForGroupORDetail></CargoHandling></CargoHandlingXML>\",\r\n    \"LoginUser\": \"SKU119\",\r\n    \"PO\": \"\",\r\n    \"SortField\": \"SONumber\",\r\n    \"Status\": \"\"\r\n  },\r\n  0,\r\n  20\r\n]"
				},
				"url": {
					"raw": "{{url}}/api/DataHandling/GetLPStatusListBySP",
					"host": [
						"{{url}}"
					],
					"path": [
						"api",
						"DataHandling",
						"GetLPStatusListBySP"
					]
				}
			},
			"response": []
		}
	]
}