{
	"info": {
		"_postman_id": "6265f364-c448-4eb4-9771-12191001fdcd",
		"name": "LabelOrder",
		"schema": "https://schema.getpostman.com/json/collection/v2.1.0/collection.json"
	},
	"item": [
		{
			"name": "GetLPO",
			"event": [
				{
					"listen": "test",
					"script": {
						"exec": [
							"pm.test(\"Status code is 200\", function () {\r",
							"    pm.response.to.have.status(200);\r",
							"});\r",
							"pm.test(\"Content-Type header is application/json\", function(){\r",
							"  pm.expect(pm.response.headers.get('Content-Type')).to.eq('application/json; charset=utf-8');\r",
							"});\r",
							"pm.test(\"Response time is same/less than Expected time\", function () {\r",
							"    const time = parseInt(pm.environment.get(\"Time\"))\r",
							"    pm.expect(pm.response.responseTime).to.be.below(time);\r",
							"});"
						],
						"type": "text/javascript"
					}
				}
			],
			"request": {
				"method": "POST",
				"header": [
					{
						"key": "Content-Type",
						"value": "application/json",
						"type": "text"
					},
					{
						"key": "Token",
						"value": "{{token}}",
						"type": "text"
					}
				],
				"body": {
					"mode": "raw",
					"raw": "[\r\n   \"GetLPO\",\r\n   {\r\n      \"LPO\":\"HBTC801\",\r\n      \"UID\":\"SKU119\",\r\n      \"ClientID\":137,\r\n      \"SortField\":\"CreateDatetime DESC\",\r\n      \"New\":100\r\n   },\r\n   0,\r\n   20\r\n]"
				},
				"url": {
					"raw": "{{url}}/api/LabelOrder/GetLPO",
					"host": [
						"{{url}}"
					],
					"path": [
						"api",
						"LabelOrder",
						"GetLPO"
					]
				}
			},
			"response": []
		},
		{
			"name": "GetPOInfo",
			"event": [
				{
					"listen": "test",
					"script": {
						"exec": [
							"pm.test(\"Status code is 200\", function () {\r",
							"    pm.response.to.have.status(200);\r",
							"});\r",
							"pm.test(\"Content-Type header is application/json\", function(){\r",
							"  pm.expect(pm.response.headers.get('Content-Type')).to.eq('application/json; charset=utf-8');\r",
							"});\r",
							"pm.test(\"Response time is same/less than Expected time\", function () {\r",
							"    const time = parseInt(pm.environment.get(\"Time\"))\r",
							"    pm.expect(pm.response.responseTime).to.be.below(time);\r",
							"});"
						],
						"type": "text/javascript"
					}
				}
			],
			"request": {
				"method": "POST",
				"header": [
					{
						"key": "Content-Type",
						"value": "application/json",
						"type": "text"
					},
					{
						"key": "Token",
						"value": "{{token}}",
						"type": "text"
					}
				],
				"body": {
					"mode": "raw",
					"raw": "[\r\n  \"GetPOInfo\",\r\n  {\r\n    \"PONumber\": \"\",\r\n    \"SKU\": \"\",\r\n    \"ClientID\": 78,\r\n    \"ReceivedFrom\": \"\",\r\n    \"ReceivedTo\": \"\",\r\n    \"LPOID\": \"835\"\r\n  },\r\n  0,\r\n  20\r\n]"
				},
				"url": {
					"raw": "{{url}}/api/LabelOrder/GetPOInfo",
					"host": [
						"{{url}}"
					],
					"path": [
						"api",
						"LabelOrder",
						"GetPOInfo"
					]
				}
			},
			"response": []
		},
		{
			"name": "GetLabelOrderHeaderByLPOId",
			"event": [
				{
					"listen": "test",
					"script": {
						"exec": [
							"pm.test(\"Status code is 200\", function () {\r",
							"    pm.response.to.have.status(200);\r",
							"});\r",
							"pm.test(\"Content-Type header is application/json\", function(){\r",
							"  pm.expect(pm.response.headers.get('Content-Type')).to.eq('application/json; charset=utf-8');\r",
							"});\r",
							"pm.test(\"Response time is same/less than Expected time\", function () {\r",
							"    const time = parseInt(pm.environment.get(\"Time\"))\r",
							"    pm.expect(pm.response.responseTime).to.be.below(time);\r",
							"});"
						],
						"type": "text/javascript"
					}
				}
			],
			"request": {
				"method": "GET",
				"header": [
					{
						"key": "Content-Type",
						"value": "application/json",
						"type": "text"
					},
					{
						"key": "Token",
						"value": "{{token}}",
						"type": "text"
					}
				],
				"url": {
					"raw": "{{url}}/api/LabelOrder/GetLabelOrderHeaderByLPOId?lPOId={{lPOId}}",
					"host": [
						"{{url}}"
					],
					"path": [
						"api",
						"LabelOrder",
						"GetLabelOrderHeaderByLPOId"
					],
					"query": [
						{
							"key": "lPOId",
							"value": "{{lPOId}}"
						}
					]
				}
			},
			"response": []
		},
		{
			"name": "GetLabelOrderBodyByLPOID",
			"event": [
				{
					"listen": "test",
					"script": {
						"exec": [
							"pm.test(\"Status code is 200\", function () {\r",
							"    pm.response.to.have.status(200);\r",
							"});\r",
							"pm.test(\"Content-Type header is application/json\", function(){\r",
							"  pm.expect(pm.response.headers.get('Content-Type')).to.eq('application/json; charset=utf-8');\r",
							"});\r",
							"pm.test(\"Response time is same/less than Expected time\", function () {\r",
							"    const time = parseInt(pm.environment.get(\"Time\"))\r",
							"    pm.expect(pm.response.responseTime).to.be.below(time);\r",
							"});"
						],
						"type": "text/javascript"
					}
				}
			],
			"request": {
				"method": "GET",
				"header": [
					{
						"key": "Content-Type",
						"value": "application/json",
						"type": "text"
					},
					{
						"key": "Token",
						"value": "{{token}}",
						"type": "text"
					}
				],
				"url": {
					"raw": "{{url}}/api/LabelOrder/GetLabelOrderBodyByLPOID?lPOId={{lPOId}}",
					"host": [
						"{{url}}"
					],
					"path": [
						"api",
						"LabelOrder",
						"GetLabelOrderBodyByLPOID"
					],
					"query": [
						{
							"key": "lPOId",
							"value": "{{lPOId}}"
						}
					]
				}
			},
			"response": []
		},
		{
			"name": "GenerateWOSLP",
			"event": [
				{
					"listen": "test",
					"script": {
						"exec": [
							"pm.test(\"Status code is 200\", function () {\r",
							"    pm.response.to.have.status(200);\r",
							"});\r",
							"pm.test(\"Content-Type header is application/json\", function(){\r",
							"  pm.expect(pm.response.headers.get('Content-Type')).to.eq('application/json; charset=utf-8');\r",
							"});\r",
							"pm.test(\"Response time is same/less than Expected time\", function () {\r",
							"    const time = parseInt(pm.environment.get(\"Time\"))\r",
							"    pm.expect(pm.response.responseTime).to.be.below(time);\r",
							"});"
						],
						"type": "text/javascript"
					}
				}
			],
			"request": {
				"method": "POST",
				"header": [
					{
						"key": "Content-Type",
						"value": "application/json",
						"type": "text"
					},
					{
						"key": "Token",
						"value": "{{token}}",
						"type": "text"
					}
				],
				"body": {
					"mode": "raw",
					"raw": "[\r\n  {\r\n    \"Id\": 88,\r\n    \"Name\": \"LLBean\",\r\n    \"Mail\": \"sasmitadash@esspl.com\",\r\n    \"Code\": \"LLBean\",\r\n    \"Tel\": \"\",\r\n    \"Status\": \"0\",\r\n    \"SystemFlag\": 0,\r\n    \"CreateUser\": \"CONSUP\",\r\n    \"CreateDatetime\": \"2013-07-31T13:46:50.833\",\r\n    \"UpdateUser\": \"CONSUP\",\r\n    \"UpdateDatetime\": \"2013-07-31T13:46:50.833\",\r\n    \"TotalRowCount\": 0\r\n  },\r\n  {\r\n    \"Id\": 11,\r\n    \"ClientId\": 88,\r\n    \"Name\": \"LLBean Mixed\",\r\n    \"Mail\": \"\",\r\n    \"Code\": \"LLBeanMixed\",\r\n    \"Country\": \"\",\r\n    \"Tel\": \"\",\r\n    \"Status\": \"0\",\r\n    \"SystemFlag\": 0,\r\n    \"CreateUser\": \"CONSUP\",\r\n    \"CreateDatetime\": \"2013-10-10T10:37:15.087\",\r\n    \"UpdateUser\": \"CONSUP\",\r\n    \"UpdateDatetime\": \"2013-10-10T10:37:40.483\",\r\n    \"City\": \"\",\r\n    \"State\": \"\",\r\n    \"Region\": \"\",\r\n    \"TotalRowCount\": 0\r\n  },\r\n  40084,\r\n  \"<LPGenerate><POLine><POLineID>93987</POLineID><LabelQty>2</LabelQty></POLine></LPGenerate>\",\r\n  {\r\n    \"userDomain\": {\r\n      \"TotalRowCount\": 0\r\n    },\r\n    \"UID\": \"SKU119\",\r\n    \"UserGroupId\": 0,\r\n    \"UserGroupPriority\": 0,\r\n    \"HigherGroupPriority\": 0,\r\n    \"LastRefreshDateTimeFunctionList\": \"0001-01-01T00:00:00\",\r\n    \"adProfile\": {\r\n      \"DisplayName\": \".\",\r\n      \"IsAccountActive\": false,\r\n      \"Groups\": []\r\n    }\r\n  }\r\n]"
				},
				"url": {
					"raw": "{{url}}/api/LabelOrder/GenerateWOSLP",
					"host": [
						"{{url}}"
					],
					"path": [
						"api",
						"LabelOrder",
						"GenerateWOSLP"
					]
				}
			},
			"response": []
		},
		{
			"name": "WOSPOMapping",
			"event": [
				{
					"listen": "test",
					"script": {
						"exec": [
							"pm.test(\"Status code is 200\", function () {\r",
							"    pm.response.to.have.status(200);\r",
							"});\r",
							"pm.test(\"Content-Type header is application/json\", function(){\r",
							"  pm.expect(pm.response.headers.get('Content-Type')).to.eq('application/json; charset=utf-8');\r",
							"});\r",
							"pm.test(\"Response time is same/less than Expected time\", function () {\r",
							"    const time = parseInt(pm.environment.get(\"Time\"))\r",
							"    pm.expect(pm.response.responseTime).to.be.below(time);\r",
							"});"
						],
						"type": "text/javascript"
					}
				}
			],
			"request": {
				"method": "POST",
				"header": [
					{
						"key": "Content-Type",
						"value": "application/json",
						"type": "text"
					},
					{
						"key": "Token",
						"value": "{{toke}}",
						"type": "text"
					}
				],
				"body": {
					"mode": "raw",
					"raw": "[\r\n  \"88\",\r\n  \"11\",\r\n  \"SKU119\"\r\n]"
				},
				"url": {
					"raw": "{{url}}/api/LabelOrder/WOSPOMapping",
					"host": [
						"{{url}}"
					],
					"path": [
						"api",
						"LabelOrder",
						"WOSPOMapping"
					]
				}
			},
			"response": []
		},
		{
			"name": "GetWOSDeliveryInfo",
			"event": [
				{
					"listen": "test",
					"script": {
						"exec": [
							"pm.test(\"Status code is 200\", function () {\r",
							"    pm.response.to.have.status(200);\r",
							"});\r",
							"pm.test(\"Content-Type header is application/json\", function(){\r",
							"  pm.expect(pm.response.headers.get('Content-Type')).to.eq('application/json; charset=utf-8');\r",
							"});\r",
							"pm.test(\"Response time is same/less than Expected time\", function () {\r",
							"    const time = parseInt(pm.environment.get(\"Time\"))\r",
							"    pm.expect(pm.response.responseTime).to.be.below(time);\r",
							"});"
						],
						"type": "text/javascript"
					}
				}
			],
			"request": {
				"method": "POST",
				"header": [
					{
						"key": "Content-Type",
						"value": "application/json",
						"type": "text"
					},
					{
						"key": "Token",
						"value": "{{token}}",
						"type": "text"
					}
				],
				"body": {
					"mode": "raw",
					"raw": "[\r\n  \"88\",\r\n  \"11\",\r\n  \"SKU119\",\r\n  \"07/17/2021\",\r\n  \"3\",\r\n  \"5678\",\r\n  \"1288\",\r\n  \"<POList><PO><POID>0</POID></PO></POList>\",\r\n  false,\r\n  \"\"\r\n]"
				},
				"url": {
					"raw": "{{url}}/api/LabelOrder/GetWOSDeliveryInfo",
					"host": [
						"{{url}}"
					],
					"path": [
						"api",
						"LabelOrder",
						"GetWOSDeliveryInfo"
					]
				}
			},
			"response": []
		},
		{
			"name": "GetLPOById",
			"event": [
				{
					"listen": "test",
					"script": {
						"exec": [
							"pm.test(\"Status code is 200\", function () {\r",
							"    pm.response.to.have.status(200);\r",
							"});\r",
							"pm.test(\"Content-Type header is application/json\", function(){\r",
							"  pm.expect(pm.response.headers.get('Content-Type')).to.eq('application/json; charset=utf-8');\r",
							"});\r",
							"pm.test(\"Response time is same/less than Expected time\", function () {\r",
							"    const time = parseInt(pm.environment.get(\"Time\"))\r",
							"    pm.expect(pm.response.responseTime).to.be.below(time);\r",
							"});"
						],
						"type": "text/javascript"
					}
				}
			],
			"request": {
				"method": "GET",
				"header": [
					{
						"key": "Content-Type",
						"value": "application/json",
						"type": "text"
					},
					{
						"key": "Token",
						"value": "{{token}}",
						"type": "text"
					}
				],
				"url": {
					"raw": "{{url}}/api/LabelOrder/GetLPOById?LPOId={{LPOId}}",
					"host": [
						"{{url}}"
					],
					"path": [
						"api",
						"LabelOrder",
						"GetLPOById"
					],
					"query": [
						{
							"key": "LPOId",
							"value": "{{LPOId}}"
						}
					]
				}
			},
			"response": []
		},
		{
			"name": "GetWOSPOInfo",
			"event": [
				{
					"listen": "test",
					"script": {
						"exec": [
							"pm.test(\"Status code is 200\", function () {\r",
							"    pm.response.to.have.status(200);\r",
							"});\r",
							"pm.test(\"Content-Type header is application/json\", function(){\r",
							"  pm.expect(pm.response.headers.get('Content-Type')).to.eq('application/json; charset=utf-8');\r",
							"});\r",
							"pm.test(\"Response time is same/less than Expected time\", function () {\r",
							"    const time = parseInt(pm.environment.get(\"Time\"))\r",
							"    pm.expect(pm.response.responseTime).to.be.below(time);\r",
							"});"
						],
						"type": "text/javascript"
					}
				}
			],
			"request": {
				"method": "POST",
				"header": [
					{
						"key": "Content-Type",
						"value": "application/json",
						"type": "text"
					},
					{
						"key": "Token",
						"value": "{{token}}",
						"type": "text"
					}
				],
				"body": {
					"mode": "raw",
					"raw": "[\r\n  \"88\",\r\n  \"11\",\r\n  \"SKU119\",\r\n  \"\"\r\n]"
				},
				"url": {
					"raw": "{{url}}/api/LabelOrder/GetWOSPOInfo",
					"host": [
						"{{url}}"
					],
					"path": [
						"api",
						"LabelOrder",
						"GetWOSPOInfo"
					]
				}
			},
			"response": []
		},
		{
			"name": "GetSubClientCodeBySubclientId",
			"event": [
				{
					"listen": "test",
					"script": {
						"exec": [
							"pm.test(\"Status code is 200\", function () {\r",
							"    pm.response.to.have.status(200);\r",
							"});\r",
							"pm.test(\"Content-Type header is application/json\", function(){\r",
							"  pm.expect(pm.response.headers.get('Content-Type')).to.eq('application/json; charset=utf-8');\r",
							"});\r",
							"pm.test(\"Response time is same/less than Expected time\", function () {\r",
							"    const time = parseInt(pm.environment.get(\"Time\"))\r",
							"    pm.expect(pm.response.responseTime).to.be.below(time);\r",
							"});\r",
							""
						],
						"type": "text/javascript"
					}
				}
			],
			"request": {
				"method": "GET",
				"header": [
					{
						"key": "Content-Type",
						"value": "application/json",
						"type": "text"
					},
					{
						"key": "Token",
						"value": "{{token}}",
						"type": "text"
					}
				],
				"url": {
					"raw": "{{url}}/api/LabelOrder/GetSubClientCodeBySubclientId?subclientId={{SubClientId}}",
					"host": [
						"{{url}}"
					],
					"path": [
						"api",
						"LabelOrder",
						"GetSubClientCodeBySubclientId"
					],
					"query": [
						{
							"key": "subclientId",
							"value": "{{SubClientId}}"
						}
					]
				}
			},
			"response": []
		},
		{
			"name": "ConfirmNewLPO",
			"event": [
				{
					"listen": "test",
					"script": {
						"exec": [
							"pm.test(\"Status code is 200\", function () {\r",
							"    pm.response.to.have.status(200);\r",
							"});\r",
							"pm.test(\"Content-Type header is application/json\", function(){\r",
							"  pm.expect(pm.response.headers.get('Content-Type')).to.eq('application/json; charset=utf-8');\r",
							"});\r",
							"pm.test(\"Response time is same/less than Expected time\", function () {\r",
							"    const time = parseInt(pm.environment.get(\"Time\"))\r",
							"    pm.expect(pm.response.responseTime).to.be.below(time);\r",
							"});"
						],
						"type": "text/javascript"
					}
				}
			],
			"request": {
				"method": "POST",
				"header": [
					{
						"key": "Content-Type",
						"value": "application/json",
						"type": "text"
					},
					{
						"key": "Token",
						"value": "{{token}}",
						"type": "text"
					}
				],
				"body": {
					"mode": "raw",
					"raw": " [\r\n          0,\r\n          \"11\",\r\n          \"110011\",\r\n          \"SKU119\",\r\n          \"\"\r\n        ]"
				},
				"url": {
					"raw": "{{url}}/api/LabelOrder/ConfirmNewLPO",
					"host": [
						"{{url}}"
					],
					"path": [
						"api",
						"LabelOrder",
						"ConfirmNewLPO"
					]
				}
			},
			"response": []
		},
		{
			"name": "GenerateLPO",
			"event": [
				{
					"listen": "test",
					"script": {
						"exec": [
							"pm.test(\"Status code is 200\", function () {\r",
							"    pm.response.to.have.status(200);\r",
							"});\r",
							"pm.test(\"Content-Type header is application/json\", function(){\r",
							"  pm.expect(pm.response.headers.get('Content-Type')).to.eq('application/json; charset=utf-8');\r",
							"});\r",
							"pm.test(\"Response time is same/less than Expected time\", function () {\r",
							"    const time = parseInt(pm.environment.get(\"Time\"))\r",
							"    pm.expect(pm.response.responseTime).to.be.below(time);\r",
							"});"
						],
						"type": "text/javascript"
					}
				}
			],
			"request": {
				"method": "POST",
				"header": [
					{
						"key": "Content-Type",
						"value": "application/json",
						"type": "text"
					},
					{
						"key": "Token",
						"value": "{{token}}",
						"type": "text"
					}
				],
				"body": {
					"mode": "raw",
					"raw": "[\r\n  \"88\",\r\n  \"11\",\r\n  \"SKU119\",\r\n  0,\r\n  \"\"\r\n]"
				},
				"url": {
					"raw": "{{url}}/api/LabelOrder/GenerateLPO",
					"host": [
						"{{url}}"
					],
					"path": [
						"api",
						"LabelOrder",
						"GenerateLPO"
					]
				}
			},
			"response": []
		},
		{
			"name": "GetWOSPOReport",
			"event": [
				{
					"listen": "test",
					"script": {
						"exec": [
							"pm.test(\"Status code is 200\", function () {\r",
							"    pm.response.to.have.status(200);\r",
							"});\r",
							"pm.test(\"Content-Type header is application/json\", function(){\r",
							"  pm.expect(pm.response.headers.get('Content-Type')).to.eq('application/json; charset=utf-8');\r",
							"});\r",
							"pm.test(\"Response time is same/less than Expected time\", function () {\r",
							"    const time = parseInt(pm.environment.get(\"Time\"))\r",
							"    pm.expect(pm.response.responseTime).to.be.below(time);\r",
							"});"
						],
						"type": "text/javascript"
					}
				}
			],
			"request": {
				"method": "POST",
				"header": [
					{
						"key": "Content-Type",
						"value": "application/json",
						"type": "text"
					},
					{
						"key": "Token",
						"value": "{{token}}",
						"type": "text"
					}
				],
				"body": {
					"mode": "raw",
					"raw": "[\r\n  \"89\",\r\n  \"5\",\r\n  \"SKU119\",\r\n  \"\",\r\n  \"\",\r\n  \"\",\r\n  \" \",\r\n  null\r\n]"
				},
				"url": {
					"raw": "{{url}}/api/LabelOrder/GetWOSPOReport",
					"host": [
						"{{url}}"
					],
					"path": [
						"api",
						"LabelOrder",
						"GetWOSPOReport"
					]
				}
			},
			"response": []
		},
		{
			"name": "GetWOSAddidasPOGatherReport",
			"event": [
				{
					"listen": "test",
					"script": {
						"exec": [
							"pm.test(\"Status code is 200\", function () {\r",
							"    pm.response.to.have.status(200);\r",
							"});\r",
							"pm.test(\"Content-Type header is application/json\", function(){\r",
							"  pm.expect(pm.response.headers.get('Content-Type')).to.eq('application/json; charset=utf-8');\r",
							"});\r",
							"pm.test(\"Response time is same/less than Expected time\", function () {\r",
							"    const time = parseInt(pm.environment.get(\"Time\"))\r",
							"    pm.expect(pm.response.responseTime).to.be.below(time);\r",
							"});"
						],
						"type": "text/javascript"
					}
				}
			],
			"request": {
				"method": "POST",
				"header": [
					{
						"key": "Content-Type",
						"value": "application/json",
						"type": "text"
					},
					{
						"key": "Token",
						"value": "{{token}}",
						"type": "text"
					}
				],
				"body": {
					"mode": "raw",
					"raw": "[\r\n  \"88\",\r\n  \"11\",\r\n  \"SKU119\",\r\n  \"\",\r\n  \"\"\r\n]"
				},
				"url": {
					"raw": "{{url}}/api/LabelOrder/GetWOSAddidasPOGatherReport",
					"host": [
						"{{url}}"
					],
					"path": [
						"api",
						"LabelOrder",
						"GetWOSAddidasPOGatherReport"
					]
				}
			},
			"response": []
		},
		{
			"name": "GetWOSAdidasPOSummaryReport",
			"event": [
				{
					"listen": "test",
					"script": {
						"exec": [
							"pm.test(\"Status code is 200\", function () {\r",
							"    pm.response.to.have.status(200);\r",
							"});\r",
							"pm.test(\"Content-Type header is application/json\", function(){\r",
							"  pm.expect(pm.response.headers.get('Content-Type')).to.eq('application/json; charset=utf-8');\r",
							"});\r",
							"pm.test(\"Response time is same/less than Expected time\", function () {\r",
							"    const time = parseInt(pm.environment.get(\"Time\"))\r",
							"    pm.expect(pm.response.responseTime).to.be.below(time);\r",
							"});\r",
							""
						],
						"type": "text/javascript"
					}
				}
			],
			"request": {
				"method": "POST",
				"header": [
					{
						"key": "Content-Type",
						"value": "application/json",
						"type": "text"
					},
					{
						"key": "Token",
						"value": "{{token}}",
						"type": "text"
					}
				],
				"body": {
					"mode": "raw",
					"raw": "        [\r\n          \"95\",\r\n          \"SKU119\",\r\n          \"\",\r\n          \"\",\r\n          \" \"\r\n        ]"
				},
				"url": {
					"raw": "{{url}}/api/LabelOrder/GetWOSAdidasPOSummaryReport",
					"host": [
						"{{url}}"
					],
					"path": [
						"api",
						"LabelOrder",
						"GetWOSAdidasPOSummaryReport"
					]
				}
			},
			"response": []
		},
		{
			"name": "GetWOSPrintedLabelReport",
			"event": [
				{
					"listen": "test",
					"script": {
						"exec": [
							"pm.test(\"Status code is 200\", function () {\r",
							"    pm.response.to.have.status(200);\r",
							"});\r",
							"pm.test(\"Content-Type header is application/json\", function(){\r",
							"  pm.expect(pm.response.headers.get('Content-Type')).to.eq('application/json; charset=utf-8');\r",
							"});\r",
							"pm.test(\"Response time is same/less than Expected time\", function () {\r",
							"    const time = parseInt(pm.environment.get(\"Time\"))\r",
							"    pm.expect(pm.response.responseTime).to.be.below(time);\r",
							"});"
						],
						"type": "text/javascript"
					}
				}
			],
			"request": {
				"method": "POST",
				"header": [
					{
						"key": "Content-Type",
						"value": "application/json",
						"type": "text"
					},
					{
						"key": "Token",
						"value": "{{token}}",
						"type": "text"
					}
				],
				"body": {
					"mode": "raw",
					"raw": "[\r\n  \"SKU119\",\r\n  \"7/18/2021 6:30:00 PM\",\r\n  \"7/21/2021 6:29:59 PM\"\r\n]"
				},
				"url": {
					"raw": "{{url}}/api/LabelOrder/GetWOSPrintedLabelReport",
					"host": [
						"{{url}}"
					],
					"path": [
						"api",
						"LabelOrder",
						"GetWOSPrintedLabelReport"
					]
				}
			},
			"response": []
		},
		{
			"name": "GetAdidasProductSummaryReport",
			"event": [
				{
					"listen": "test",
					"script": {
						"exec": [
							"pm.test(\"Status code is 200\", function () {\r",
							"    pm.response.to.have.status(200);\r",
							"});\r",
							"pm.test(\"Content-Type header is application/json\", function(){\r",
							"  pm.expect(pm.response.headers.get('Content-Type')).to.eq('application/json; charset=utf-8');\r",
							"});\r",
							"pm.test(\"Response time is same/less than Expected time\", function () {\r",
							"    const time = parseInt(pm.environment.get(\"Time\"))\r",
							"    pm.expect(pm.response.responseTime).to.be.below(time);\r",
							"});"
						],
						"type": "text/javascript"
					}
				}
			],
			"request": {
				"method": "POST",
				"header": [
					{
						"key": "Content-Type",
						"value": "application/json",
						"type": "text"
					},
					{
						"key": "Token",
						"value": "{{token}}",
						"type": "text"
					}
				],
				"body": {
					"mode": "raw",
					"raw": "[\r\n  \"88\",\r\n  \"11\",\r\n  \"SKU119\",\r\n  \"7/4/2021 6:30:00 PM\",\r\n  \"7/20/2021 6:29:59 PM\",\r\n  \"\"\r\n]"
				},
				"url": {
					"raw": "{{url}}/api/LabelOrder/GetAdidasProductSummaryReport",
					"host": [
						"{{url}}"
					],
					"path": [
						"api",
						"LabelOrder",
						"GetAdidasProductSummaryReport"
					]
				}
			},
			"response": []
		},
		{
			"name": "AddLabelOrderbyLPO",
			"event": [
				{
					"listen": "test",
					"script": {
						"exec": [
							"pm.test(\"Status code is 200\", function () {\r",
							"    pm.response.to.have.status(200);\r",
							"});\r",
							"pm.test(\"Content-Type header is application/json\", function(){\r",
							"  pm.expect(pm.response.headers.get('Content-Type')).to.eq('application/json; charset=utf-8');\r",
							"});\r",
							"pm.test(\"Response time is same/less than Expected time\", function () {\r",
							"    const time = parseInt(pm.environment.get(\"Time\"))\r",
							"    pm.expect(pm.response.responseTime).to.be.below(time);\r",
							"});"
						],
						"type": "text/javascript"
					}
				}
			],
			"request": {
				"method": "POST",
				"header": [
					{
						"key": "Content-Type",
						"value": "application/json",
						"type": "text"
					},
					{
						"key": "Token",
						"value": "{{token}}",
						"type": "text"
					}
				],
				"body": {
					"mode": "raw",
					"raw": "[\r\n  {\r\n    \"ClientID\": 137,\r\n    \"Status\": 0,\r\n    \"TotalRowCount\": 0\r\n  },\r\n  {\r\n    \"VendorID\": 1288,\r\n    \"DeliveryRegion\": \"\",\r\n    \"DeliveryCity\": \"\",\r\n    \"DeliveryCountry\": \"\",\r\n    \"DeliveryZipCode\": \"\",\r\n    \"DeliveryAddressLine1\": \"\",\r\n    \"DeliveryAddressLine2\": \"\",\r\n    \"DeliveryAddressLine3\": \"\",\r\n    \"DeliveryAddressLine4\": \"\",\r\n    \"TotalRowCount\": 0\r\n  },\r\n  {\r\n    \"userDomain\": {\r\n      \"TotalRowCount\": 0\r\n    },\r\n    \"UID\": \"SKU119\",\r\n    \"UserGroupId\": 0,\r\n    \"UserGroupPriority\": 0,\r\n    \"HigherGroupPriority\": 0,\r\n    \"LastRefreshDateTimeFunctionList\": \"0001-01-01T00:00:00\",\r\n    \"adProfile\": {\r\n      \"DisplayName\": \".\",\r\n      \"IsAccountActive\": false,\r\n      \"Groups\": []\r\n    }\r\n  },\r\n  \"CENT\"\r\n]"
				},
				"url": {
					"raw": "{{url}}/api/LabelOrder/AddLabelOrderbyLPO",
					"host": [
						"{{url}}"
					],
					"path": [
						"api",
						"LabelOrder",
						"AddLabelOrderbyLPO"
					]
				}
			},
			"response": []
		},
		{
			"name": "WOSLPRerint",
			"event": [
				{
					"listen": "test",
					"script": {
						"exec": [
							"pm.test(\"Status code is 200\", function () {\r",
							"    pm.response.to.have.status(200);\r",
							"});\r",
							"pm.test(\"Content-Type header is application/json\", function(){\r",
							"  pm.expect(pm.response.headers.get('Content-Type')).to.eq('application/json; charset=utf-8');\r",
							"});\r",
							"pm.test(\"Response time is same/less than Expected time\", function () {\r",
							"    const time = parseInt(pm.environment.get(\"Time\"))\r",
							"    pm.expect(pm.response.responseTime).to.be.below(time);\r",
							"});"
						],
						"type": "text/javascript"
					}
				}
			],
			"request": {
				"method": "POST",
				"header": [
					{
						"key": "Token",
						"value": "{{token}}",
						"type": "text"
					},
					{
						"key": "Content-Type",
						"value": "application/json",
						"type": "text"
					}
				],
				"body": {
					"mode": "raw",
					"raw": "[\r\n   {\r\n      \"Id\":88,\r\n      \"Name\":\"LLBean\",\r\n      \"Mail\":\"sasmitadash@esspl.com\",\r\n      \"Code\":\"LLBean\",\r\n      \"Tel\":\"\",\r\n      \"Status\":\"0\",\r\n      \"SystemFlag\":0,\r\n      \"CreateUser\":\"CONSUP\",\r\n      \"CreateDatetime\":\"2013-07-31T13:46:50.833\",\r\n      \"UpdateUser\":\"CONSUP\",\r\n      \"UpdateDatetime\":\"2013-07-31T13:46:50.833\",\r\n      \"TotalRowCount\":0\r\n   },\r\n   {\r\n      \"Id\":11,\r\n      \"ClientId\":88,\r\n      \"Name\":\"LLBean Mixed\",\r\n      \"Mail\":\"\",\r\n      \"Code\":\"LLBeanMixed\",\r\n      \"Country\":\"\",\r\n      \"Tel\":\"\",\r\n      \"Status\":\"0\",\r\n      \"SystemFlag\":0,\r\n      \"CreateUser\":\"CONSUP\",\r\n      \"CreateDatetime\":\"2013-10-10T10:37:15.087\",\r\n      \"UpdateUser\":\"CONSUP\",\r\n      \"UpdateDatetime\":\"2013-10-10T10:37:40.483\",\r\n      \"City\":\"\",\r\n      \"State\":\"\",\r\n      \"Region\":\"\",\r\n      \"TotalRowCount\":0\r\n   },\r\n   40024,\r\n   \"<LPList><LP><LPID>82540</LPID><CartonID>00089448076</CartonID></LP><LP><LPID>82568</LPID><CartonID>00089448120</CartonID></LP></LPList>\",\r\n   {\r\n      \"userDomain\":{\r\n         \"TotalRowCount\":0\r\n      },\r\n      \"UID\":\"SKU119\",\r\n      \"UserGroupId\":0,\r\n      \"UserGroupPriority\":0,\r\n      \"HigherGroupPriority\":0,\r\n      \"LastRefreshDateTimeFunctionList\":\"0001-01-01T00:00:00\",\r\n      \"adProfile\":{\r\n         \"DisplayName\":\".\",\r\n         \"IsAccountActive\":false,\r\n         \"Groups\":[\r\n            \r\n         ]\r\n      }\r\n   },\r\n   \"3333\"\r\n]"
				},
				"url": {
					"raw": "{{url}}/api/LabelOrder/WOSLPRerint",
					"host": [
						"{{url}}"
					],
					"path": [
						"api",
						"LabelOrder",
						"WOSLPRerint"
					]
				}
			},
			"response": []
		},
		{
			"name": "GetLPOByPOID",
			"event": [
				{
					"listen": "test",
					"script": {
						"exec": [
							"pm.test(\"Status code is 200\", function () {\r",
							"    pm.response.to.have.status(200);\r",
							"});\r",
							"pm.test(\"Content-Type header is application/json\", function(){\r",
							"  pm.expect(pm.response.headers.get('Content-Type')).to.eq('application/json; charset=utf-8');\r",
							"});\r",
							"pm.test(\"Response time is same/less than Expected time\", function () {\r",
							"    const time = parseInt(pm.environment.get(\"Time\"))\r",
							"    pm.expect(pm.response.responseTime).to.be.below(time);\r",
							"});\r",
							"pm.test(\"Body matches string\", function () {\r",
							"    pm.expect(pm.response.text()).to.include(\"No records found\");\r",
							"});"
						],
						"type": "text/javascript"
					}
				}
			],
			"request": {
				"method": "GET",
				"header": [
					{
						"key": "Content-Type",
						"value": "application/json",
						"type": "text"
					},
					{
						"key": "Token",
						"value": "{{token}}",
						"type": "text"
					}
				],
				"url": {
					"raw": "{{url}}/api/LabelOrder/GetLPOByPOID?lPOId=739",
					"host": [
						"{{url}}"
					],
					"path": [
						"api",
						"LabelOrder",
						"GetLPOByPOID"
					],
					"query": [
						{
							"key": "lPOId",
							"value": "739"
						}
					]
				}
			},
			"response": []
		},
		{
			"name": "GetPOConnectedTOLPO",
			"event": [
				{
					"listen": "test",
					"script": {
						"exec": [
							"pm.test(\"Status code is 200\", function () {\r",
							"    pm.response.to.have.status(200);\r",
							"});\r",
							"pm.test(\"Content-Type header is application/json\", function(){\r",
							"  pm.expect(pm.response.headers.get('Content-Type')).to.eq('application/json; charset=utf-8');\r",
							"});\r",
							"pm.test(\"Response time is same/less than Expected time\", function () {\r",
							"    const time = parseInt(pm.environment.get(\"Time\"))\r",
							"    pm.expect(pm.response.responseTime).to.be.below(time);\r",
							"});\r",
							""
						],
						"type": "text/javascript"
					}
				}
			],
			"request": {
				"method": "POST",
				"header": [
					{
						"key": "Content-Type",
						"value": "application/json",
						"type": "text"
					},
					{
						"key": "Token",
						"value": "{{token}}",
						"type": "text"
					}
				],
				"body": {
					"mode": "raw",
					"raw": "[\r\n    \"GetPOConnectedTOLPO\",\r\n    {\r\n        \"LPOID\": \"806\"\r\n    },\r\n    0,\r\n    20\r\n]"
				},
				"url": {
					"raw": "{{url}}/api/LabelOrder/GetPOConnectedTOLPO",
					"host": [
						"{{url}}"
					],
					"path": [
						"api",
						"LabelOrder",
						"GetPOConnectedTOLPO"
					]
				}
			},
			"response": []
		},
		{
			"name": "WOSSavePOMapping",
			"event": [
				{
					"listen": "test",
					"script": {
						"exec": [
							"pm.test(\"Status code is 200\", function () {\r",
							"    pm.response.to.have.status(200);\r",
							"});\r",
							"pm.test(\"Content-Type header is application/json\", function(){\r",
							"  pm.expect(pm.response.headers.get('Content-Type')).to.eq('application/json; charset=utf-8');\r",
							"});\r",
							"pm.test(\"Response time is same/less than Expected time\", function () {\r",
							"    const time = parseInt(pm.environment.get(\"Time\"))\r",
							"    pm.expect(pm.response.responseTime).to.be.below(time);\r",
							"});\r",
							""
						],
						"type": "text/javascript"
					}
				}
			],
			"request": {
				"method": "POST",
				"header": [
					{
						"key": "Content-Type",
						"value": "application/json",
						"type": "text"
					},
					{
						"key": "Token",
						"value": "{{token}}",
						"type": "text"
					}
				],
				"body": {
					"mode": "raw",
					"raw": "[\r\n          \"35\",\r\n          \"\",\r\n          \"SKU119\",\r\n          \"<POMap><PO><POMappingID>2497</POMappingID><POFieldId>297</POFieldId><MandatoryCheck>0</MandatoryCheck><WOSFieldType>0</WOSFieldType><WOSCalculateField>0</WOSCalculateField><CalculateEnable>0</CalculateEnable><Enable>0</Enable><ListItemSource></ListItemSource><FieldOrder></FieldOrder><IsEvenEnable>0</IsEvenEnable><ShowAddress>0</ShowAddress></PO><PO><POMappingID>2498</POMappingID><POFieldId>299</POFieldId><MandatoryCheck>0</MandatoryCheck><WOSFieldType>0</WOSFieldType><WOSCalculateField>0</WOSCalculateField><CalculateEnable>0</CalculateEnable><Enable>0</Enable><ListItemSource></ListItemSource><FieldOrder></FieldOrder><IsEvenEnable>0</IsEvenEnable><ShowAddress>0</ShowAddress></PO><PO><POMappingID>2499</POMappingID><POFieldId>301</POFieldId><MandatoryCheck>0</MandatoryCheck><WOSFieldType>0</WOSFieldType><WOSCalculateField>0</WOSCalculateField><CalculateEnable>0</CalculateEnable><Enable>0</Enable><ListItemSource></ListItemSource><FieldOrder></FieldOrder><IsEvenEnable>0</IsEvenEnable><ShowAddress>0</ShowAddress></PO><PO><POMappingID>2500</POMappingID><POFieldId>303</POFieldId><MandatoryCheck>0</MandatoryCheck><WOSFieldType>0</WOSFieldType><WOSCalculateField>0</WOSCalculateField><CalculateEnable>0</CalculateEnable><Enable>0</Enable><ListItemSource></ListItemSource><FieldOrder></FieldOrder><IsEvenEnable>0</IsEvenEnable><ShowAddress>0</ShowAddress></PO><PO><POMappingID>2501</POMappingID><POFieldId>305</POFieldId><MandatoryCheck>0</MandatoryCheck><WOSFieldType>0</WOSFieldType><WOSCalculateField>0</WOSCalculateField><CalculateEnable>0</CalculateEnable><Enable>0</Enable><ListItemSource></ListItemSource><FieldOrder></FieldOrder><IsEvenEnable>0</IsEvenEnable><ShowAddress>0</ShowAddress></PO><PO><POMappingID>2502</POMappingID><POFieldId>307</POFieldId><MandatoryCheck>0</MandatoryCheck><WOSFieldType>0</WOSFieldType><WOSCalculateField>0</WOSCalculateField><CalculateEnable>0</CalculateEnable><Enable>0</Enable><ListItemSource></ListItemSource><FieldOrder></FieldOrder><IsEvenEnable>0</IsEvenEnable><ShowAddress>0</ShowAddress></PO><PO><POMappingID>2503</POMappingID><POFieldId>309</POFieldId><MandatoryCheck>0</MandatoryCheck><WOSFieldType>0</WOSFieldType><WOSCalculateField>0</WOSCalculateField><CalculateEnable>0</CalculateEnable><Enable>0</Enable><ListItemSource></ListItemSource><FieldOrder></FieldOrder><IsEvenEnable>0</IsEvenEnable><ShowAddress>0</ShowAddress></PO><PO><POMappingID>2504</POMappingID><POFieldId>311</POFieldId><MandatoryCheck>0</MandatoryCheck><WOSFieldType>0</WOSFieldType><WOSCalculateField>0</WOSCalculateField><CalculateEnable>0</CalculateEnable><Enable>0</Enable><ListItemSource></ListItemSource><FieldOrder></FieldOrder><IsEvenEnable>0</IsEvenEnable><ShowAddress>0</ShowAddress></PO><PO><POMappingID>2505</POMappingID><POFieldId>313</POFieldId><MandatoryCheck>0</MandatoryCheck><WOSFieldType>0</WOSFieldType><WOSCalculateField>0</WOSCalculateField><CalculateEnable>0</CalculateEnable><Enable>0</Enable><ListItemSource></ListItemSource><FieldOrder></FieldOrder><IsEvenEnable>0</IsEvenEnable><ShowAddress>0</ShowAddress></PO><PO><POMappingID>2506</POMappingID><POFieldId>315</POFieldId><MandatoryCheck>0</MandatoryCheck><WOSFieldType>0</WOSFieldType><WOSCalculateField>0</WOSCalculateField><CalculateEnable>0</CalculateEnable><Enable>0</Enable><ListItemSource></ListItemSource><FieldOrder></FieldOrder><IsEvenEnable>0</IsEvenEnable><ShowAddress>0</ShowAddress></PO><PO><POMappingID>2507</POMappingID><POFieldId>317</POFieldId><MandatoryCheck>0</MandatoryCheck><WOSFieldType>0</WOSFieldType><WOSCalculateField>0</WOSCalculateField><CalculateEnable>0</CalculateEnable><Enable>0</Enable><ListItemSource></ListItemSource><FieldOrder></FieldOrder><IsEvenEnable>0</IsEvenEnable><ShowAddress>0</ShowAddress></PO><PO><POMappingID>2508</POMappingID><POFieldId>320</POFieldId><MandatoryCheck>0</MandatoryCheck><WOSFieldType>0</WOSFieldType><WOSCalculateField>0</WOSCalculateField><CalculateEnable>0</CalculateEnable><Enable>0</Enable><ListItemSource></ListItemSource><FieldOrder></FieldOrder><IsEvenEnable>0</IsEvenEnable><ShowAddress>0</ShowAddress></PO><PO><POMappingID>2509</POMappingID><POFieldId>324</POFieldId><MandatoryCheck>0</MandatoryCheck><WOSFieldType>0</WOSFieldType><WOSCalculateField>0</WOSCalculateField><CalculateEnable>0</CalculateEnable><Enable>0</Enable><ListItemSource></ListItemSource><FieldOrder></FieldOrder><IsEvenEnable>0</IsEvenEnable><ShowAddress>0</ShowAddress></PO><PO><POMappingID>2510</POMappingID><POFieldId>331</POFieldId><MandatoryCheck>0</MandatoryCheck><WOSFieldType>0</WOSFieldType><WOSCalculateField>0</WOSCalculateField><CalculateEnable>0</CalculateEnable><Enable>0</Enable><ListItemSource></ListItemSource><FieldOrder></FieldOrder><IsEvenEnable>0</IsEvenEnable><ShowAddress>0</ShowAddress></PO><PO><POMappingID>2511</POMappingID><POFieldId>360</POFieldId><MandatoryCheck>0</MandatoryCheck><WOSFieldType>0</WOSFieldType><WOSCalculateField>0</WOSCalculateField><CalculateEnable>0</CalculateEnable><Enable>0</Enable><ListItemSource></ListItemSource><FieldOrder></FieldOrder><IsEvenEnable>0</IsEvenEnable><ShowAddress>0</ShowAddress></PO><PO><POMappingID>2512</POMappingID><POFieldId>367</POFieldId><MandatoryCheck>0</MandatoryCheck><WOSFieldType>0</WOSFieldType><WOSCalculateField>0</WOSCalculateField><CalculateEnable>0</CalculateEnable><Enable>0</Enable><ListItemSource></ListItemSource><FieldOrder></FieldOrder><IsEvenEnable>0</IsEvenEnable><ShowAddress>0</ShowAddress></PO><PO><POMappingID>3939</POMappingID><POFieldId>391</POFieldId><MandatoryCheck>0</MandatoryCheck><WOSFieldType>0</WOSFieldType><WOSCalculateField>0</WOSCalculateField><CalculateEnable>0</CalculateEnable><Enable>0</Enable><ListItemSource></ListItemSource><FieldOrder></FieldOrder><IsEvenEnable>0</IsEvenEnable><ShowAddress>0</ShowAddress></PO><PO><POMappingID>2514</POMappingID><POFieldId>394</POFieldId><MandatoryCheck>0</MandatoryCheck><WOSFieldType>0</WOSFieldType><WOSCalculateField>0</WOSCalculateField><CalculateEnable>0</CalculateEnable><Enable>0</Enable><ListItemSource></ListItemSource><FieldOrder></FieldOrder><IsEvenEnable>0</IsEvenEnable><ShowAddress>0</ShowAddress></PO><PO><POMappingID>2515</POMappingID><POFieldId>397</POFieldId><MandatoryCheck>0</MandatoryCheck><WOSFieldType>0</WOSFieldType><WOSCalculateField>0</WOSCalculateField><CalculateEnable>0</CalculateEnable><Enable>0</Enable><ListItemSource></ListItemSource><FieldOrder></FieldOrder><IsEvenEnable>0</IsEvenEnable><ShowAddress>0</ShowAddress></PO><PO><POMappingID>2516</POMappingID><POFieldId>400</POFieldId><MandatoryCheck>0</MandatoryCheck><WOSFieldType>0</WOSFieldType><WOSCalculateField>0</WOSCalculateField><CalculateEnable>0</CalculateEnable><Enable>0</Enable><ListItemSource></ListItemSource><FieldOrder></FieldOrder><IsEvenEnable>0</IsEvenEnable><ShowAddress>0</ShowAddress></PO><PO><POMappingID>2517</POMappingID><POFieldId>403</POFieldId><MandatoryCheck>0</MandatoryCheck><WOSFieldType>0</WOSFieldType><WOSCalculateField>0</WOSCalculateField><CalculateEnable>0</CalculateEnable><Enable>0</Enable><ListItemSource></ListItemSource><FieldOrder></FieldOrder><IsEvenEnable>0</IsEvenEnable><ShowAddress>0</ShowAddress></PO><PO><POMappingID>2518</POMappingID><POFieldId>406</POFieldId><MandatoryCheck>0</MandatoryCheck><WOSFieldType>0</WOSFieldType><WOSCalculateField>0</WOSCalculateField><CalculateEnable>0</CalculateEnable><Enable>0</Enable><ListItemSource></ListItemSource><FieldOrder></FieldOrder><IsEvenEnable>0</IsEvenEnable><ShowAddress>0</ShowAddress></PO><PO><POMappingID>2519</POMappingID><POFieldId>425</POFieldId><MandatoryCheck>0</MandatoryCheck><WOSFieldType>0</WOSFieldType><WOSCalculateField>0</WOSCalculateField><CalculateEnable>0</CalculateEnable><Enable>0</Enable><ListItemSource></ListItemSource><FieldOrder></FieldOrder><IsEvenEnable>0</IsEvenEnable><ShowAddress>0</ShowAddress></PO><PO><POMappingID>2520</POMappingID><POFieldId>437</POFieldId><MandatoryCheck>0</MandatoryCheck><WOSFieldType>0</WOSFieldType><WOSCalculateField>0</WOSCalculateField><CalculateEnable>0</CalculateEnable><Enable>0</Enable><ListItemSource></ListItemSource><FieldOrder></FieldOrder><IsEvenEnable>0</IsEvenEnable><ShowAddress>0</ShowAddress></PO><PO><POMappingID>2521</POMappingID><POFieldId>451</POFieldId><MandatoryCheck>0</MandatoryCheck><WOSFieldType>0</WOSFieldType><WOSCalculateField>0</WOSCalculateField><CalculateEnable>0</CalculateEnable><Enable>0</Enable><ListItemSource></ListItemSource><FieldOrder></FieldOrder><IsEvenEnable>0</IsEvenEnable><ShowAddress>0</ShowAddress></PO><PO><POMappingID>2522</POMappingID><POFieldId>460</POFieldId><MandatoryCheck>0</MandatoryCheck><WOSFieldType>0</WOSFieldType><WOSCalculateField>0</WOSCalculateField><CalculateEnable>0</CalculateEnable><Enable>0</Enable><ListItemSource></ListItemSource><FieldOrder></FieldOrder><IsEvenEnable>0</IsEvenEnable><ShowAddress>0</ShowAddress></PO><PO><POMappingID>2523</POMappingID><POFieldId>467</POFieldId><MandatoryCheck>0</MandatoryCheck><WOSFieldType>0</WOSFieldType><WOSCalculateField>0</WOSCalculateField><CalculateEnable>0</CalculateEnable><Enable>0</Enable><ListItemSource></ListItemSource><FieldOrder></FieldOrder><IsEvenEnable>0</IsEvenEnable><ShowAddress>0</ShowAddress></PO><PO><POMappingID>2524</POMappingID><POFieldId>613</POFieldId><MandatoryCheck>0</MandatoryCheck><WOSFieldType>0</WOSFieldType><WOSCalculateField>0</WOSCalculateField><CalculateEnable>0</CalculateEnable><Enable>0</Enable><ListItemSource></ListItemSource><FieldOrder></FieldOrder><IsEvenEnable>0</IsEvenEnable><ShowAddress>0</ShowAddress></PO><PO><POMappingID>2525</POMappingID><POFieldId>614</POFieldId><MandatoryCheck>0</MandatoryCheck><WOSFieldType>0</WOSFieldType><WOSCalculateField>0</WOSCalculateField><CalculateEnable>0</CalculateEnable><Enable>0</Enable><ListItemSource></ListItemSource><FieldOrder></FieldOrder><IsEvenEnable>0</IsEvenEnable><ShowAddress>0</ShowAddress></PO><PO><POMappingID>2526</POMappingID><POFieldId>615</POFieldId><MandatoryCheck>0</MandatoryCheck><WOSFieldType>0</WOSFieldType><WOSCalculateField>0</WOSCalculateField><CalculateEnable>0</CalculateEnable><Enable>0</Enable><ListItemSource></ListItemSource><FieldOrder></FieldOrder><IsEvenEnable>0</IsEvenEnable><ShowAddress>0</ShowAddress></PO><PO><POMappingID>2527</POMappingID><POFieldId>616</POFieldId><MandatoryCheck>0</MandatoryCheck><WOSFieldType>0</WOSFieldType><WOSCalculateField>0</WOSCalculateField><CalculateEnable>0</CalculateEnable><Enable>0</Enable><ListItemSource></ListItemSource><FieldOrder></FieldOrder><IsEvenEnable>0</IsEvenEnable><ShowAddress>0</ShowAddress></PO><PO><POMappingID>2528</POMappingID><POFieldId>617</POFieldId><MandatoryCheck>0</MandatoryCheck><WOSFieldType>0</WOSFieldType><WOSCalculateField>0</WOSCalculateField><CalculateEnable>0</CalculateEnable><Enable>0</Enable><ListItemSource></ListItemSource><FieldOrder></FieldOrder><IsEvenEnable>0</IsEvenEnable><ShowAddress>0</ShowAddress></PO><PO><POMappingID>2529</POMappingID><POFieldId>618</POFieldId><MandatoryCheck>0</MandatoryCheck><WOSFieldType>0</WOSFieldType><WOSCalculateField>0</WOSCalculateField><CalculateEnable>0</CalculateEnable><Enable>0</Enable><ListItemSource></ListItemSource><FieldOrder></FieldOrder><IsEvenEnable>0</IsEvenEnable><ShowAddress>0</ShowAddress></PO><PO><POMappingID>2530</POMappingID><POFieldId>619</POFieldId><MandatoryCheck>0</MandatoryCheck><WOSFieldType>0</WOSFieldType><WOSCalculateField>0</WOSCalculateField><CalculateEnable>0</CalculateEnable><Enable>0</Enable><ListItemSource></ListItemSource><FieldOrder></FieldOrder><IsEvenEnable>0</IsEvenEnable><ShowAddress>0</ShowAddress></PO><PO><POMappingID>2531</POMappingID><POFieldId>620</POFieldId><MandatoryCheck>0</MandatoryCheck><WOSFieldType>0</WOSFieldType><WOSCalculateField>0</WOSCalculateField><CalculateEnable>0</CalculateEnable><Enable>0</Enable><ListItemSource></ListItemSource><FieldOrder></FieldOrder><IsEvenEnable>0</IsEvenEnable><ShowAddress>0</ShowAddress></PO><PO><POMappingID>2532</POMappingID><POFieldId>621</POFieldId><MandatoryCheck>0</MandatoryCheck><WOSFieldType>0</WOSFieldType><WOSCalculateField>0</WOSCalculateField><CalculateEnable>0</CalculateEnable><Enable>0</Enable><ListItemSource></ListItemSource><FieldOrder></FieldOrder><IsEvenEnable>0</IsEvenEnable><ShowAddress>0</ShowAddress></PO><PO><POMappingID>2533</POMappingID><POFieldId>622</POFieldId><MandatoryCheck>0</MandatoryCheck><WOSFieldType>0</WOSFieldType><WOSCalculateField>0</WOSCalculateField><CalculateEnable>0</CalculateEnable><Enable>0</Enable><ListItemSource></ListItemSource><FieldOrder></FieldOrder><IsEvenEnable>0</IsEvenEnable><ShowAddress>0</ShowAddress></PO><PO><POMappingID>3940</POMappingID><POFieldId>278</POFieldId><MandatoryCheck>0</MandatoryCheck><WOSFieldType>0</WOSFieldType><WOSCalculateField>0</WOSCalculateField><CalculateEnable>0</CalculateEnable><Enable>0</Enable><ListItemSource></ListItemSource><FieldOrder></FieldOrder><IsEvenEnable>0</IsEvenEnable><ShowAddress>0</ShowAddress></PO><PO><POMappingID>3941</POMappingID><POFieldId>287</POFieldId><MandatoryCheck>0</MandatoryCheck><WOSFieldType>0</WOSFieldType><WOSCalculateField>0</WOSCalculateField><CalculateEnable>0</CalculateEnable><Enable>0</Enable><ListItemSource></ListItemSource><FieldOrder></FieldOrder><IsEvenEnable>0</IsEvenEnable><ShowAddress>0</ShowAddress></PO><PO><POMappingID>3942</POMappingID><POFieldId>291</POFieldId><MandatoryCheck>0</MandatoryCheck><WOSFieldType>0</WOSFieldType><WOSCalculateField>0</WOSCalculateField><CalculateEnable>0</CalculateEnable><Enable>0</Enable><ListItemSource></ListItemSource><FieldOrder></FieldOrder><IsEvenEnable>0</IsEvenEnable><ShowAddress>0</ShowAddress></PO><PO><POMappingID>2489</POMappingID><POFieldId>254</POFieldId><WOSLabelName>10</WOSLabelName><MandatoryCheck>0</MandatoryCheck><WOSFieldType>0</WOSFieldType><WOSCalculateField>0</WOSCalculateField><CalculateEnable>0</CalculateEnable><Enable>0</Enable><ListItemSource></ListItemSource><FieldOrder>10</FieldOrder><IsEvenEnable>0</IsEvenEnable><ShowAddress>1</ShowAddress></PO><PO><POMappingID>2490</POMappingID><POFieldId>269</POFieldId><WOSLabelName>26/09/2013</WOSLabelName><MandatoryCheck>0</MandatoryCheck><WOSFieldType>0</WOSFieldType><WOSCalculateField>0</WOSCalculateField><CalculateEnable>0</CalculateEnable><Enable>0</Enable><ListItemSource></ListItemSource><FieldOrder>10</FieldOrder><IsEvenEnable>0</IsEvenEnable><ShowAddress>1</ShowAddress></PO><PO><POMappingID>2487</POMappingID><POFieldId>246</POFieldId><WOSLabelName>26/09/2013</WOSLabelName><MandatoryCheck>0</MandatoryCheck><WOSFieldType>0</WOSFieldType><WOSCalculateField>0</WOSCalculateField><CalculateEnable>0</CalculateEnable><Enable>0</Enable><ListItemSource></ListItemSource><FieldOrder>11</FieldOrder><IsEvenEnable>0</IsEvenEnable><ShowAddress>1</ShowAddress></PO><PO><POMappingID>2488</POMappingID><POFieldId>248</POFieldId><WOSLabelName>26/09/2013</WOSLabelName><MandatoryCheck>0</MandatoryCheck><WOSFieldType>0</WOSFieldType><WOSCalculateField>0</WOSCalculateField><CalculateEnable>0</CalculateEnable><Enable>0</Enable><ListItemSource></ListItemSource><FieldOrder>11</FieldOrder><IsEvenEnable>0</IsEvenEnable><ShowAddress>1</ShowAddress></PO><PO><POMappingID>2493</POMappingID><POFieldId>289</POFieldId><WOSLabelName>11</WOSLabelName><MandatoryCheck>0</MandatoryCheck><WOSFieldType>0</WOSFieldType><WOSCalculateField>0</WOSCalculateField><CalculateEnable>0</CalculateEnable><Enable>0</Enable><ListItemSource></ListItemSource><FieldOrder>11</FieldOrder><IsEvenEnable>0</IsEvenEnable><ShowAddress>1</ShowAddress></PO><PO><POMappingID>2496</POMappingID><POFieldId>295</POFieldId><WOSLabelName>11</WOSLabelName><MandatoryCheck>0</MandatoryCheck><WOSFieldType>0</WOSFieldType><WOSCalculateField>0</WOSCalculateField><CalculateEnable>0</CalculateEnable><Enable>0</Enable><ListItemSource></ListItemSource><FieldOrder>11</FieldOrder><IsEvenEnable>0</IsEvenEnable><ShowAddress>0</ShowAddress></PO><PO><POMappingID>2486</POMappingID><POFieldId>245</POFieldId><WOSLabelName>12</WOSLabelName><MandatoryCheck>0</MandatoryCheck><WOSFieldType>0</WOSFieldType><WOSCalculateField>0</WOSCalculateField><CalculateEnable>0</CalculateEnable><Enable>0</Enable><ListItemSource></ListItemSource><FieldOrder>12</FieldOrder><IsEvenEnable>0</IsEvenEnable><ShowAddress>1</ShowAddress></PO><PO><POMappingID>2494</POMappingID><POFieldId>289</POFieldId><WOSLabelName>12</WOSLabelName><MandatoryCheck>0</MandatoryCheck><WOSFieldType>0</WOSFieldType><WOSCalculateField>0</WOSCalculateField><CalculateEnable>0</CalculateEnable><Enable>0</Enable><ListItemSource></ListItemSource><FieldOrder>12</FieldOrder><IsEvenEnable>0</IsEvenEnable><ShowAddress>1</ShowAddress></PO><PO><POMappingID>2495</POMappingID><POFieldId>293</POFieldId><WOSLabelName>13</WOSLabelName><MandatoryCheck>0</MandatoryCheck><WOSFieldType>0</WOSFieldType><WOSCalculateField>0</WOSCalculateField><CalculateEnable>0</CalculateEnable><Enable>0</Enable><ListItemSource></ListItemSource><FieldOrder>13</FieldOrder><IsEvenEnable>0</IsEvenEnable><ShowAddress>0</ShowAddress></PO></POMap>\"\r\n        ]\r\n"
				},
				"url": {
					"raw": "{{url}}/api/LabelOrder/WOSSavePOMapping",
					"host": [
						"{{url}}"
					],
					"path": [
						"api",
						"LabelOrder",
						"WOSSavePOMapping"
					]
				}
			},
			"response": []
		}
	]
}