{
	"info": {
		"_postman_id": "38a57c6a-9b39-44d8-918e-8408248b5394",
		"name": "Notification",
		"schema": "https://schema.getpostman.com/json/collection/v2.1.0/collection.json"
	},
	"item": [
		{
			"name": "GetNotificationList",
			"event": [
				{
					"listen": "test",
					"script": {
						"exec": [
							"pm.test(\"Status code is 200\", function () {\r",
							"    pm.response.to.have.status(200);\r",
							"});\r",
							"pm.test(\"Content-Type header is application/json\", function(){\r",
							"  pm.expect(pm.response.headers.get('Content-Type')).to.eq('application/json; charset=utf-8');\r",
							"});\r",
							"pm.test(\"Response time is same/less than Expected time\", function () {\r",
							"    const time = parseInt(pm.environment.get(\"Time\"))\r",
							"    pm.expect(pm.response.responseTime).to.be.below(time);\r",
							"});"
						],
						"type": "text/javascript"
					}
				}
			],
			"request": {
				"method": "POST",
				"header": [
					{
						"key": "Content-Type",
						"value": "application/json",
						"type": "text"
					},
					{
						"key": "Token",
						"value": "{{token}}",
						"type": "text"
					}
				],
				"body": {
					"mode": "raw",
					"raw": "[\r\n  \"GetNotificationList\",\r\n  {\r\n    \"SortField\": \"\",\r\n    \"NotificationType\": \"\"\r\n  },\r\n  0,\r\n  20\r\n]\r\n"
				},
				"url": {
					"raw": "{{url}}/api/Notification/GetNotificationList",
					"host": [
						"{{url}}"
					],
					"path": [
						"api",
						"Notification",
						"GetNotificationList"
					]
				}
			},
			"response": []
		},
		{
			"name": "GetNotificationHistoryList",
			"event": [
				{
					"listen": "test",
					"script": {
						"exec": [
							"pm.test(\"Status code is 200\", function () {\r",
							"    pm.response.to.have.status(200);\r",
							"});\r",
							"pm.test(\"Content-Type header is application/json\", function(){\r",
							"  pm.expect(pm.response.headers.get('Content-Type')).to.eq('application/json; charset=utf-8');\r",
							"});\r",
							"pm.test(\"Response time is same/less than Expected time\", function () {\r",
							"    const time = parseInt(pm.environment.get(\"Time\"))\r",
							"    pm.expect(pm.response.responseTime).to.be.below(time);\r",
							"});"
						],
						"type": "text/javascript"
					}
				}
			],
			"request": {
				"method": "POST",
				"header": [
					{
						"key": "Content-Type",
						"value": "application/json",
						"type": "text"
					},
					{
						"key": "Token",
						"value": "{{token}}",
						"type": "text"
					}
				],
				"body": {
					"mode": "raw",
					"raw": "[\r\n  \"GetNotificationHistoryList\",\r\n  {\r\n    \"SortField\": \"Tbl_NotificationHistory.CreateDateTime DESC\",\r\n    \"NotificationType\": \"\"\r\n  },\r\n  0,\r\n  20\r\n]\r\n"
				},
				"url": {
					"raw": "{{url}}/api/Notification/GetNotificationHistoryList",
					"host": [
						"{{url}}"
					],
					"path": [
						"api",
						"Notification",
						"GetNotificationHistoryList"
					]
				}
			},
			"response": []
		}
	]
}