{
	"info": {
		"_postman_id": "89247258-2900-4320-a6bd-b122c2c046f7",
		"name": "ProfileManagement",
		"schema": "https://schema.getpostman.com/json/collection/v2.1.0/collection.json"
	},
	"item": [
		{
			"name": "GetUserList",
			"event": [
				{
					"listen": "test",
					"script": {
						"exec": [
							"pm.test(\"Status code is 200\", function () {\r",
							"    pm.response.to.have.status(200);\r",
							"});\r",
							"pm.test(\"Content-Type header is application/json\", function(){\r",
							"  pm.expect(pm.response.headers.get('Content-Type')).to.eq('application/json; charset=utf-8');\r",
							"});\r",
							"pm.test(\"Response time is same/less than Expected time\", function () {\r",
							"    const time = parseInt(pm.environment.get(\"Time\"))\r",
							"    pm.expect(pm.response.responseTime).to.be.below(time);\r",
							"});\r",
							""
						],
						"type": "text/javascript"
					}
				}
			],
			"request": {
				"method": "POST",
				"header": [
					{
						"key": "Content-Type",
						"value": "application/json",
						"type": "text"
					},
					{
						"key": "Token",
						"value": "{{token}}",
						"type": "text"
					}
				],
				"body": {
					"mode": "raw",
					"raw": "[\r\n  \"sprocScanAppUserList\",\r\n  {\r\n    \"IsUserProfileLinked\": 1,\r\n    \"Mail\": \"\",\r\n    \"UID\": \"\",\r\n    \"LastUpdateDateFrom\": null,\r\n    \"ProfileId\": \"86\",\r\n    \"LoginUser\": \"SKU119\",\r\n    \"LastUpdateDateTo\": null,\r\n    \"SortField\": \"UID\"\r\n  },\r\n  0,\r\n  20\r\n]\r\n"
				},
				"url": {
					"raw": "{{url}}/api/ProfileManagement/GetUserList",
					"host": [
						"{{url}}"
					],
					"path": [
						"api",
						"ProfileManagement",
						"GetUserList"
					]
				}
			},
			"response": []
		},
		{
			"name": "GetProfileList",
			"event": [
				{
					"listen": "test",
					"script": {
						"exec": [
							"pm.test(\"Status code is 200\", function () {\r",
							"    pm.response.to.have.status(200);\r",
							"});\r",
							"pm.test(\"Content-Type header is application/json\", function(){\r",
							"  pm.expect(pm.response.headers.get('Content-Type')).to.eq('application/json; charset=utf-8');\r",
							"});\r",
							"pm.test(\"Response time is same/less than Expected time\", function () {\r",
							"    const time = parseInt(pm.environment.get(\"Time\"))\r",
							"    pm.expect(pm.response.responseTime).to.be.below(time);\r",
							"});\r",
							""
						],
						"type": "text/javascript"
					}
				}
			],
			"request": {
				"method": "POST",
				"header": [
					{
						"key": "Content-Type",
						"value": "application/json",
						"type": "text"
					},
					{
						"key": "Token",
						"value": "{{token}}",
						"type": "text"
					}
				],
				"body": {
					"mode": "raw",
					"raw": "[\r\n  \"sprocScanGetProfileList\",\r\n  {\r\n    \"IsUserProfileLinked\": 0,\r\n    \"ProfileName\": \"Adidas_Test\",\r\n    \"CreatedDateFrom\": \"\",\r\n    \"LoginUser\": \"SKU119\",\r\n    \"UserId\": 0,\r\n    \"CreatedDateTo\": null,\r\n    \"SortField\": \"UpdateDatetime DESC\"\r\n  },\r\n  0,\r\n  20\r\n]\r\n"
				},
				"url": {
					"raw": "{{url}}/api/ProfileManagement/GetProfileList",
					"host": [
						"{{url}}"
					],
					"path": [
						"api",
						"ProfileManagement",
						"GetProfileList"
					]
				}
			},
			"response": []
		},
		{
			"name": "GetRequestedUserList",
			"event": [
				{
					"listen": "test",
					"script": {
						"exec": [
							"pm.test(\"Status code is 200\", function () {\r",
							"    pm.response.to.have.status(200);\r",
							"});\r",
							"pm.test(\"Content-Type header is application/json\", function(){\r",
							"  pm.expect(pm.response.headers.get('Content-Type')).to.eq('application/json; charset=utf-8');\r",
							"});\r",
							"pm.test(\"Response time is same/less than Expected time\", function () {\r",
							"    const time = parseInt(pm.environment.get(\"Time\"))\r",
							"    pm.expect(pm.response.responseTime).to.be.below(time);\r",
							"});\r",
							""
						],
						"type": "text/javascript"
					}
				}
			],
			"request": {
				"method": "POST",
				"header": [
					{
						"key": "Content-Type",
						"value": "application/json",
						"type": "text"
					},
					{
						"key": "Token",
						"value": "{{token}}",
						"type": "text"
					}
				],
				"body": {
					"mode": "raw",
					"raw": "[\r\n  \"sprocScanAppResetPwdUserList\",\r\n  {\r\n    \"Mail\": \"\",\r\n    \"RequestDateTo\": null,\r\n    \"UID\": \"SKU119\",\r\n    \"LoginUserEmail\": \"damco@esspl.com\",\r\n    \"RequestDateFrom\": null,\r\n    \"LoginUser\": \"SKU119\",\r\n    \"SortField\": \"UpdateDatetime DESC\"\r\n  },\r\n  0,\r\n  20\r\n]"
				},
				"url": {
					"raw": "{{url}}/api/ProfileManagement/GetRequestedUserList",
					"host": [
						"{{url}}"
					],
					"path": [
						"api",
						"ProfileManagement",
						"GetRequestedUserList"
					]
				}
			},
			"response": []
		},
		{
			"name": "ProfileOperationConfiguration_add",
			"event": [
				{
					"listen": "test",
					"script": {
						"exec": [
							"pm.test(\"Status code is 200\", function () {\r",
							"    pm.response.to.have.status(200);\r",
							"});\r",
							"pm.test(\"Content-Type header is application/json\", function(){\r",
							"  pm.expect(pm.response.headers.get('Content-Type')).to.eq('application/json; charset=utf-8');\r",
							"});\r",
							"pm.test(\"Response time is same/less than Expected time\", function () {\r",
							"    const time = parseInt(pm.environment.get(\"Time\"))\r",
							"    pm.expect(pm.response.responseTime).to.be.below(time);\r",
							"});\r",
							""
						],
						"type": "text/javascript"
					}
				}
			],
			"request": {
				"method": "POST",
				"header": [
					{
						"key": "Content-Type",
						"value": "application/json",
						"type": "text"
					},
					{
						"key": "Token",
						"value": "{{token}}",
						"type": "text"
					}
				],
				"body": {
					"mode": "raw",
					"raw": "[\r\n  \"<ProfileList><Profile><ID></ID><ProfileName>NIKE_Test_1</ProfileName><FileName>Nike11.prf</FileName><FileContent>#NIKE\\r\\n00,NIKE,1,NIKE,2015-04-27,UC,1,0,0,0,1,0,0\\r\\n11,Receiving,desc,SO,SO,AAA9999999,10,1,0,0,1,1,0\\r\\n21,Receiving,desc,PO,PO,AAAAAAAAA#,10,1,0,0,1,1,0\\r\\n31,Receiving,desc,SKU,SKU,AAAAAA-AAA,10,1,0,0,1,1,0\\r\\n41,Receiving,desc,CartonID,CID,99999999999999999999,20,1,1,1,0,0,0\\r\\n\\r\\n11,Stuffing,desc,ContainerNumber,Container,AAAA9999999,11,1,0,1,1,0,0\\r\\n21,Stuffing,desc,SO,SO,AAA9999999,10,1,0,0,1,0,0\\r\\n31,Stuffing,desc,PO,PO,AAAAAAAAA#,10,1,0,0,1,0,0\\r\\n41,Stuffing,desc,SKU,SKU,AAAAAA-AAA,10,1,0,0,1,0,0\\r\\n51,Stuffing,desc,CartonID,CID,99999999999999999999,20,1,1,1,0,0,0</FileContent></Profile></ProfileList>\",\r\n  \"ADD\",\r\n  \"SKU119\"\r\n]"
				},
				"url": {
					"raw": "{{url}}/api/ProfileManagement/ProfileOperationConfiguration",
					"host": [
						"{{url}}"
					],
					"path": [
						"api",
						"ProfileManagement",
						"ProfileOperationConfiguration"
					]
				}
			},
			"response": []
		},
		{
			"name": "ProfileOperationConfiguration_edit",
			"event": [
				{
					"listen": "test",
					"script": {
						"exec": [
							"pm.test(\"Status code is 200\", function () {\r",
							"    pm.response.to.have.status(200);\r",
							"});\r",
							"pm.test(\"Content-Type header is application/json\", function(){\r",
							"  pm.expect(pm.response.headers.get('Content-Type')).to.eq('application/json; charset=utf-8');\r",
							"});\r",
							"pm.test(\"Response time is same/less than Expected time\", function () {\r",
							"    const time = parseInt(pm.environment.get(\"Time\"))\r",
							"    pm.expect(pm.response.responseTime).to.be.below(time);\r",
							"});\r",
							""
						],
						"type": "text/javascript"
					}
				}
			],
			"request": {
				"method": "POST",
				"header": [
					{
						"key": "Content-Type",
						"value": "application/json",
						"type": "text"
					},
					{
						"key": "Token",
						"value": "{{token}}",
						"type": "text"
					}
				],
				"body": {
					"mode": "raw",
					"raw": "[\r\n  \"<ProfileList><Profile><ID>114</ID><ProfileName>NIKE_Test_2</ProfileName><FileName>Nike11.prf</FileName><FileContent>#NIKE\\r\\n00,NIKE,1,NIKE,2015-04-27,UC,1,0,0,0,1,0,0\\r\\n11,Receiving,desc,SO,SO,AAA9999999,10,1,0,0,1,1,0\\r\\n21,Receiving,desc,PO,PO,AAAAAAAAA#,10,1,0,0,1,1,0\\r\\n31,Receiving,desc,SKU,SKU,AAAAAA-AAA,10,1,0,0,1,1,0\\r\\n41,Receiving,desc,CartonID,CID,99999999999999999999,20,1,1,1,0,0,0\\r\\n\\r\\n11,Stuffing,desc,ContainerNumber,Container,AAAA9999999,11,1,0,1,1,0,0\\r\\n21,Stuffing,desc,SO,SO,AAA9999999,10,1,0,0,1,0,0\\r\\n31,Stuffing,desc,PO,PO,AAAAAAAAA#,10,1,0,0,1,0,0\\r\\n41,Stuffing,desc,SKU,SKU,AAAAAA-AAA,10,1,0,0,1,0,0\\r\\n51,Stuffing,desc,CartonID,CID,99999999999999999999,20,1,1,1,0,0,0</FileContent></Profile></ProfileList>\",\r\n  \"EDIT\",\r\n  \"SKU119\"\r\n]\r\n"
				},
				"url": {
					"raw": "{{url}}/api/ProfileManagement/ProfileOperationConfiguration",
					"host": [
						"{{url}}"
					],
					"path": [
						"api",
						"ProfileManagement",
						"ProfileOperationConfiguration"
					]
				}
			},
			"response": []
		},
		{
			"name": "ProfileOperationConfiguration_del",
			"event": [
				{
					"listen": "test",
					"script": {
						"exec": [
							"pm.test(\"Status code is 200\", function () {\r",
							"    pm.response.to.have.status(200);\r",
							"});\r",
							"\r",
							"pm.test(\"Response time is same/less than Expected time\", function () {\r",
							"    const time = parseInt(pm.environment.get(\"Time\"))\r",
							"    pm.expect(pm.response.responseTime).to.be.below(time);\r",
							"});\r",
							"pm.test(\"Content-Type header is application/json\", function(){\r",
							"  pm.expect(pm.response.headers.get('Content-Type')).to.eq('application/json; charset=utf-8');\r",
							"});\r",
							""
						],
						"type": "text/javascript"
					}
				}
			],
			"request": {
				"method": "POST",
				"header": [
					{
						"key": "Content-Type",
						"value": "application/json",
						"type": "text"
					},
					{
						"key": "Token",
						"value": "{{token}}",
						"type": "text"
					}
				],
				"body": {
					"mode": "raw",
					"raw": "[\r\n  \"<ProfileList><Profile><ID>112</ID><ProfileName>test prof</ProfileName><FileName>testprof.prf</FileName></Profile></ProfileList>\",\r\n  \"DEL\",\r\n  \"SKU119\"\r\n]\r\n"
				},
				"url": {
					"raw": "{{url}}/api/ProfileManagement/ProfileOperationConfiguration",
					"host": [
						"{{url}}"
					],
					"path": [
						"api",
						"ProfileManagement",
						"ProfileOperationConfiguration"
					]
				}
			},
			"response": []
		},
		{
			"name": "LinkProfileUserConfiguration_Add",
			"event": [
				{
					"listen": "test",
					"script": {
						"exec": [
							"pm.test(\"Status code is 200\", function () {\r",
							"    pm.response.to.have.status(200);\r",
							"});\r",
							"pm.test(\"Content-Type header is application/json\", function(){\r",
							"  pm.expect(pm.response.headers.get('Content-Type')).to.eq('application/json; charset=utf-8');\r",
							"});\r",
							"pm.test(\"Response time is less than 200ms\", function () {\r",
							"    pm.expect(pm.response.responseTime).to.be.below(500);\r",
							"});\r",
							""
						],
						"type": "text/javascript"
					}
				}
			],
			"request": {
				"method": "POST",
				"header": [
					{
						"key": "Content-Type",
						"value": "application/json",
						"type": "text"
					},
					{
						"key": "Token",
						"value": "{{token}}",
						"type": "text"
					}
				],
				"body": {
					"mode": "raw",
					"raw": "[\r\n  \"<ProfileList><Profile><UserId>669</UserId><ProfileId>86</ProfileId><UID>System.Web.UI.WebControls.Label</UID><ProfileName>Adidas_Test</ProfileName></Profile></ProfileList>\",\r\n  \"ADD\",\r\n  \"SKU119\"\r\n]"
				},
				"url": {
					"raw": "{{url}}/api/ProfileManagement/LinkProfileUserConfiguration",
					"host": [
						"{{url}}"
					],
					"path": [
						"api",
						"ProfileManagement",
						"LinkProfileUserConfiguration"
					]
				}
			},
			"response": []
		},
		{
			"name": "LinkProfileUserConfiguration_Remove",
			"event": [
				{
					"listen": "test",
					"script": {
						"exec": [
							"pm.test(\"Status code is 200\", function () {\r",
							"    pm.response.to.have.status(200);\r",
							"});\r",
							"pm.test(\"Content-Type header is application/json\", function(){\r",
							"  pm.expect(pm.response.headers.get('Content-Type')).to.eq('application/json; charset=utf-8');\r",
							"});\r",
							"pm.test(\"Response time is less than 200ms\", function () {\r",
							"    pm.expect(pm.response.responseTime).to.be.below(500);\r",
							"});\r",
							""
						],
						"type": "text/javascript"
					}
				}
			],
			"request": {
				"method": "POST",
				"header": [
					{
						"key": "Content-Type",
						"value": "application/json",
						"type": "text"
					},
					{
						"key": "Token",
						"value": "{{token}}",
						"type": "text"
					}
				],
				"body": {
					"mode": "raw",
					"raw": "[\r\n  \"<ProfileList><Profile><UserId>669</UserId><ProfileId>86</ProfileId><UID>System.Web.UI.WebControls.Label</UID><ProfileName>Adidas_Test</ProfileName></Profile></ProfileList>\",\r\n  \"DEL\",\r\n  \"SKU119\"\r\n]"
				},
				"url": {
					"raw": "{{url}}/api/ProfileManagement/LinkProfileUserConfiguration",
					"host": [
						"{{url}}"
					],
					"path": [
						"api",
						"ProfileManagement",
						"LinkProfileUserConfiguration"
					]
				}
			},
			"response": []
		},
		{
			"name": "GetFiteredProfileList",
			"event": [
				{
					"listen": "test",
					"script": {
						"exec": [
							"pm.test(\"Status code is 200\", function () {\r",
							"    pm.response.to.have.status(200);\r",
							"});\r",
							"pm.test(\"Content-Type header is application/json\", function(){\r",
							"  pm.expect(pm.response.headers.get('Content-Type')).to.eq('application/json; charset=utf-8');\r",
							"});\r",
							"pm.test(\"Response time is less than 200ms\", function () {\r",
							"    pm.expect(pm.response.responseTime).to.be.below(500);\r",
							"});\r",
							""
						],
						"type": "text/javascript"
					}
				}
			],
			"request": {
				"method": "POST",
				"header": [
					{
						"key": "Content-Type",
						"value": "application/json",
						"type": "text"
					},
					{
						"key": "Token",
						"value": "{{token}}",
						"type": "text"
					}
				],
				"body": {
					"mode": "raw",
					"raw": "[\r\n  {\r\n    \"IsUserProfileLinked\": 0,\r\n    \"ProfileName\": \"Adidas_Test\",\r\n    \"CreatedDateFrom\": \"\",\r\n    \"LoginUser\": \"SKU119\",\r\n    \"UserId\": 0,\r\n    \"CreatedDateTo\": \"\"\r\n  },\r\n  \"\",\r\n  0,\r\n  0\r\n]\r\n"
				},
				"url": {
					"raw": "{{url}}/api/ProfileManagement/GetFiteredProfileList",
					"host": [
						"{{url}}"
					],
					"path": [
						"api",
						"ProfileManagement",
						"GetFiteredProfileList"
					]
				}
			},
			"response": []
		}
	]
}