{
	"info": {
		"_postman_id": "484ae139-7cf4-4129-9818-a9dc84bc6904",
		"name": "QueryTemplate",
		"schema": "https://schema.getpostman.com/json/collection/v2.1.0/collection.json"
	},
	"item": [
		{
			"name": "BindFieldColumnList",
			"event": [
				{
					"listen": "test",
					"script": {
						"exec": [
							"pm.test(\"Status code is 200\", function () {\r",
							"    pm.response.to.have.status(200);\r",
							"});\r",
							"pm.test(\"Content-Type header is application/json\", function(){\r",
							"  pm.expect(pm.response.headers.get('Content-Type')).to.eq('application/json; charset=utf-8');\r",
							"});\r",
							"pm.test(\"Response time is same/less than Expected time\", function () {\r",
							"    const time = parseInt(pm.environment.get(\"Time\"))\r",
							"    pm.expect(pm.response.responseTime).to.be.below(time);\r",
							"});\r",
							""
						],
						"type": "text/javascript"
					}
				}
			],
			"request": {
				"method": "POST",
				"header": [
					{
						"key": "Content-Type",
						"value": "application/json",
						"type": "text"
					},
					{
						"key": "Token",
						"value": "{{token}}",
						"type": "text"
					}
				],
				"body": {
					"mode": "raw",
					"raw": "[\r\n  \"sprocScanAppQueryTempFieldList\",\r\n  {\r\n    \"ProfileName\": \"test profile 22\",\r\n    \"QueryName\": \"test query nm 1\",\r\n    \"ClientId\": \"79\",\r\n    \"LoginUser\": \"SKU119\"\r\n  }\r\n]\r\n\r\n"
				},
				"url": {
					"raw": "{{url}}/api/QueryTemplate/BindFieldColumnList",
					"host": [
						"{{url}}"
					],
					"path": [
						"api",
						"QueryTemplate",
						"BindFieldColumnList"
					]
				}
			},
			"response": []
		},
		{
			"name": "GetQueryTemplateList",
			"event": [
				{
					"listen": "test",
					"script": {
						"exec": [
							"pm.test(\"Status code is 200\", function () {\r",
							"    pm.response.to.have.status(200);\r",
							"});\r",
							"pm.test(\"Content-Type header is application/json\", function(){\r",
							"  pm.expect(pm.response.headers.get('Content-Type')).to.eq('application/json; charset=utf-8');\r",
							"});\r",
							"pm.test(\"Response time is same/less than Expected time\", function () {\r",
							"    const time = parseInt(pm.environment.get(\"Time\"))\r",
							"    pm.expect(pm.response.responseTime).to.be.below(time);\r",
							"});\r",
							"\r",
							""
						],
						"type": "text/javascript"
					}
				}
			],
			"request": {
				"method": "POST",
				"header": [
					{
						"key": "Content-Type",
						"value": "application/json",
						"type": "text"
					},
					{
						"key": "Token",
						"value": "{{token}}",
						"type": "text"
					}
				],
				"body": {
					"mode": "raw",
					"raw": "[\r\n  \"sprocScanAppGetQueryTemplate\",\r\n  {\r\n    \"QueryName\": \"test query nm 9\",\r\n    \"ClientId\": \"79\",\r\n    \"LoginUser\": \"SKU119\"\r\n  },\r\n  0,\r\n  20\r\n]\r\n"
				},
				"url": {
					"raw": "{{url}}/api/QueryTemplate/GetQueryTemplateList",
					"host": [
						"{{url}}"
					],
					"path": [
						"api",
						"QueryTemplate",
						"GetQueryTemplateList"
					]
				}
			},
			"response": []
		},
		{
			"name": "GetFieldPerationColumnList",
			"event": [
				{
					"listen": "test",
					"script": {
						"exec": [
							"pm.test(\"Status code is 200\", function () {\r",
							"    pm.response.to.have.status(200);\r",
							"});\r",
							"pm.test(\"Content-Type header is application/json\", function(){\r",
							"  pm.expect(pm.response.headers.get('Content-Type')).to.eq('application/json; charset=utf-8');\r",
							"});\r",
							"pm.test(\"Response time is same/less than Expected time\", function () {\r",
							"    const time = parseInt(pm.environment.get(\"Time\"))\r",
							"    pm.expect(pm.response.responseTime).to.be.below(time);\r",
							"});\r",
							""
						],
						"type": "text/javascript"
					}
				}
			],
			"request": {
				"method": "POST",
				"header": [
					{
						"key": "Content-Type",
						"value": "application/json",
						"type": "text"
					},
					{
						"key": "Token",
						"value": "{{token}}",
						"type": "text"
					}
				],
				"body": {
					"mode": "raw",
					"raw": "[\r\n  {\r\n    \"QueryName\": \"test1\",\r\n    \"ClientId\": \"131\",\r\n    \"ProfileName\": \"jbr\",\r\n    \"QueryTemplateXML\": \"<QueryTemplateXML><QueryTemplate><ItemFieldId>367</ItemFieldId><QueryFieldName>PO</QueryFieldName></QueryTemplate><QueryTemplate><ItemFieldId>419</ItemFieldId><QueryFieldName>SO</QueryFieldName></QueryTemplate></QueryTemplateXML>\",\r\n    \"OldQueryName\": \"\",\r\n    \"LoginUser\": \"SKU119\",\r\n    \"Operation\": \"Add\"\r\n  },\r\n  \"\"\r\n]",
					"options": {
						"raw": {
							"language": "json"
						}
					}
				},
				"url": {
					"raw": "{{url}}/api/QueryTemplate/GetFieldPerationColumnList",
					"host": [
						"{{url}}"
					],
					"path": [
						"api",
						"QueryTemplate",
						"GetFieldPerationColumnList"
					]
				}
			},
			"response": []
		},
		{
			"name": "AddSession",
			"event": [
				{
					"listen": "test",
					"script": {
						"exec": [
							"pm.test(\"Status code is 200\", function () {\r",
							"    pm.response.to.have.status(200);\r",
							"});\r",
							"pm.test(\"Content-Type header is application/json\", function(){\r",
							"  pm.expect(pm.response.headers.get('Content-Type')).to.eq('application/json; charset=utf-8');\r",
							"});\r",
							"pm.test(\"Response time is same/less than Expected time\", function () {\r",
							"    const time = parseInt(pm.environment.get(\"Time\"))\r",
							"    pm.expect(pm.response.responseTime).to.be.below(time);\r",
							"});\r",
							""
						],
						"type": "text/javascript"
					}
				}
			],
			"request": {
				"method": "POST",
				"header": [
					{
						"key": "Content-Type",
						"value": "application/json",
						"type": "text"
					},
					{
						"key": "Token",
						"value": "{{token}}",
						"type": "text"
					}
				],
				"body": {
					"mode": "raw",
					"raw": "[\r\n  \"2ajzgavwjsabxbzpqwsuk0t1\",\r\n  \"JCPN\",\r\n  {\r\n    \"userDomain\": {\r\n      \"TotalRowCount\": 0\r\n    },\r\n    \"UID\": \"SKU119\",\r\n    \"UserGroupId\": 0,\r\n    \"UserGroupPriority\": 0,\r\n    \"HigherGroupPriority\": 0,\r\n    \"LastRefreshDateTimeFunctionList\": \"0001-01-01T00:00:00\",\r\n    \"adProfile\": {\r\n      \"DisplayName\": \".\",\r\n      \"IsAccountActive\": false,\r\n      \"Groups\": []\r\n    }\r\n  },\r\n  13\r\n]"
				},
				"url": {
					"raw": "{{url}}/api/QueryTemplate/AddSession",
					"host": [
						"{{url}}"
					],
					"path": [
						"api",
						"QueryTemplate",
						"AddSession"
					]
				}
			},
			"response": []
		},
		{
			"name": "GetResetPwdUserList",
			"event": [
				{
					"listen": "test",
					"script": {
						"exec": [
							"pm.test(\"Status code is 200\", function () {\r",
							"    pm.response.to.have.status(200);\r",
							"});\r",
							"pm.test(\"Content-Type header is application/json\", function(){\r",
							"  pm.expect(pm.response.headers.get('Content-Type')).to.eq('application/json; charset=utf-8');\r",
							"});\r",
							"pm.test(\"Response time is same/less than Expected time\", function () {\r",
							"    const time = parseInt(pm.environment.get(\"Time\"))\r",
							"    pm.expect(pm.response.responseTime).to.be.below(time);\r",
							"});\r",
							"\r",
							""
						],
						"type": "text/javascript"
					}
				}
			],
			"request": {
				"method": "POST",
				"header": [
					{
						"key": "Content-Type",
						"value": "application/json",
						"type": "text"
					},
					{
						"key": "Token",
						"value": "{{token}}",
						"type": "text"
					}
				],
				"body": {
					"mode": "raw",
					"raw": "[\r\n        \"<UserList><User><Id>65</Id><UID>SKU119</UID><UserId>770</UserId><Mail>Jenny.Jin@damco.com;damco@esspl.com</Mail><Pwd>eo9LP</Pwd><EncryptPwd>13bbb961e24b00801fc1d07ad5127e61</EncryptPwd></User></UserList>\",\r\n        \"SKU119\"\r\n]\r\n"
				},
				"url": {
					"raw": "{{url}}/api/QueryTemplate/GetResetPwdUserList",
					"host": [
						"{{url}}"
					],
					"path": [
						"api",
						"QueryTemplate",
						"GetResetPwdUserList"
					]
				}
			},
			"response": []
		},
		{
			"name": "DeletePeration",
			"event": [
				{
					"listen": "test",
					"script": {
						"exec": [
							"pm.test(\"Status code is 200\", function () {\r",
							"    pm.response.to.have.status(200);\r",
							"});\r",
							"pm.test(\"Content-Type header is application/json\", function(){\r",
							"  pm.expect(pm.response.headers.get('Content-Type')).to.eq('application/json; charset=utf-8');\r",
							"});\r",
							"pm.test(\"Response time is same/less than Expected time\", function () {\r",
							"    const time = parseInt(pm.environment.get(\"Time\"))\r",
							"    pm.expect(pm.response.responseTime).to.be.below(time);\r",
							"});\r",
							"\r",
							""
						],
						"type": "text/javascript"
					}
				}
			],
			"request": {
				"method": "POST",
				"header": [
					{
						"key": "Content-Type",
						"value": "application/json",
						"type": "text"
					},
					{
						"key": "Token",
						"value": "{{token}}",
						"type": "text"
					}
				],
				"body": {
					"mode": "raw",
					"raw": "[\r\n  {\r\n    \"QueryName\": \"test\",\r\n    \"ClientId\": \"79\",\r\n    \"ProfileName\": \"\",\r\n    \"QueryTemplateXML\": \"\",\r\n    \"OldQueryName\": \"test\",\r\n    \"LoginUser\": \"SKU119\",\r\n    \"Operation\": \"DEL\"\r\n  }\r\n]"
				},
				"url": {
					"raw": "{{url}}/api/QueryTemplate/DeletePeration",
					"host": [
						"{{url}}"
					],
					"path": [
						"api",
						"QueryTemplate",
						"DeletePeration"
					]
				}
			},
			"response": []
		}
	]
}